<?xml version="1.0" encoding="UTF-8"?>
<!DOCTYPE svg PUBLIC "-//W3C//DTD SVG 1.1//EN" "http://www.w3.org/Graphics/SVG/1.1/DTD/svg11.dtd">
<svg version="1.2" width="280mm" height="157.5mm" viewBox="0 0 28000 15750" preserveAspectRatio="xMidYMid" fill-rule="evenodd" stroke-width="28.222" stroke-linejoin="round" xmlns="http://www.w3.org/2000/svg" xmlns:ooo="http://xml.openoffice.org/svg/export" xmlns:xlink="http://www.w3.org/1999/xlink" xmlns:presentation="http://sun.com/xmlns/staroffice/presentation" xmlns:smil="http://www.w3.org/2001/SMIL20/" xmlns:anim="urn:oasis:names:tc:opendocument:xmlns:animation:1.0" xml:space="preserve">
 <defs class="ClipPathGroup">
  <clipPath id="presentation_clip_path" clipPathUnits="userSpaceOnUse">
   <rect x="0" y="0" width="28000" height="15750"/>
  </clipPath>
  <clipPath id="presentation_clip_path_shrink" clipPathUnits="userSpaceOnUse">
   <rect x="28" y="15" width="27944" height="15719"/>
  </clipPath>
 </defs>
 <defs>
  <font id="EmbeddedFont_1" horiz-adv-x="2048">
   <font-face font-family="Courier New embedded" units-per-em="2048" font-weight="normal" font-style="normal" ascent="1693" descent="628"/>
   <missing-glyph horiz-adv-x="2048" d="M 0,0 L 2047,0 2047,2047 0,2047 0,0 Z"/>
   <glyph unicode="y" horiz-adv-x="1066" d="M 620,0 L 230,781 205,781 C 185,781 171,785 162,793 153,801 149,811 149,823 149,832 151,840 156,847 160,854 166,859 173,862 180,865 190,866 205,866 L 435,866 C 455,866 469,862 478,854 487,846 491,836 491,823 491,811 487,801 478,793 469,785 455,781 435,781 L 322,781 665,92 1003,781 890,781 C 870,781 856,785 847,793 838,801 834,811 834,824 834,836 838,846 847,854 856,862 870,866 890,866 L 1119,866 C 1140,866 1154,862 1163,854 1172,846 1176,836 1176,823 1176,814 1173,806 1168,799 1163,792 1157,787 1150,785 1143,782 1125,781 1094,781 L 562,-302 693,-302 C 713,-302 727,-306 736,-314 745,-321 749,-331 749,-344 749,-356 745,-366 736,-374 727,-382 713,-386 693,-386 L 209,-386 C 189,-386 175,-382 166,-375 157,-367 153,-357 153,-344 153,-331 157,-321 166,-314 175,-306 189,-302 209,-302 L 472,-302 Z"/>
   <glyph unicode="t" horiz-adv-x="956" d="M 442,866 L 898,866 C 918,866 932,862 941,854 950,846 954,836 954,823 954,811 950,801 941,793 932,785 918,781 898,781 L 442,781 442,222 C 442,173 462,133 501,100 540,67 597,51 672,51 729,51 790,60 856,77 922,94 973,113 1010,134 1023,143 1034,147 1043,147 1054,147 1063,143 1071,135 1079,126 1083,116 1083,105 1083,95 1079,86 1070,77 1049,55 997,31 915,6 832,-20 753,-33 678,-33 580,-33 502,-10 444,36 386,82 357,144 357,222 L 357,781 202,781 C 182,781 168,785 159,793 150,801 146,811 146,824 146,836 150,846 159,854 168,862 182,866 202,866 L 357,866 357,1114 C 357,1134 361,1148 369,1157 377,1166 387,1170 399,1170 412,1170 422,1166 430,1157 438,1148 442,1134 442,1114 Z"/>
   <glyph unicode="p" horiz-adv-x="1094" d="M 298,866 L 298,713 C 348,774 402,819 459,850 516,881 584,896 662,896 745,896 821,877 891,838 961,799 1015,746 1054,677 1092,608 1111,535 1111,459 1111,338 1068,235 982,150 895,64 789,21 663,21 513,21 391,82 298,204 L 298,-302 502,-302 C 522,-302 536,-306 545,-314 554,-321 558,-331 558,-344 558,-356 554,-366 545,-374 536,-382 522,-386 502,-386 L 101,-386 C 81,-386 67,-382 58,-375 49,-367 45,-357 45,-344 45,-331 49,-321 58,-314 67,-306 81,-302 101,-302 L 214,-302 214,781 101,781 C 81,781 67,785 58,793 49,801 45,811 45,824 45,836 49,846 58,854 67,862 81,866 101,866 Z M 1026,459 C 1026,556 991,639 921,708 850,777 764,811 663,811 561,811 475,776 404,707 333,638 298,555 298,459 298,362 333,279 404,210 475,141 561,106 663,106 764,106 849,141 920,210 991,279 1026,362 1026,459 Z"/>
   <glyph unicode="l" horiz-adv-x="902" d="M 657,1255 L 657,84 987,84 C 1008,84 1022,80 1031,73 1040,65 1044,55 1044,42 1044,30 1040,20 1031,12 1022,4 1008,0 987,0 L 243,0 C 223,0 209,4 200,12 191,20 187,30 187,42 187,55 191,65 200,73 209,80 223,84 243,84 L 573,84 573,1170 331,1170 C 311,1170 297,1174 288,1182 279,1190 274,1200 274,1213 274,1225 278,1235 287,1243 296,1251 310,1255 331,1255 Z"/>
   <glyph unicode="e" horiz-adv-x="984" d="M 1069,413 L 213,413 C 228,304 273,217 350,151 426,84 520,51 633,51 696,51 761,61 830,82 899,103 955,130 998,164 1011,174 1022,179 1031,179 1042,179 1051,175 1059,167 1067,158 1071,148 1071,137 1071,126 1066,115 1055,104 1023,71 966,40 885,11 803,-19 719,-33 633,-33 489,-33 369,14 273,109 176,203 128,317 128,451 128,573 173,678 264,765 354,852 466,896 599,896 736,896 849,851 938,762 1027,672 1070,556 1069,413 Z M 984,498 C 967,591 924,666 853,724 782,782 697,811 599,811 501,811 417,782 346,725 275,668 231,592 214,498 Z"/>
   <glyph unicode="a" horiz-adv-x="984" d="M 856,0 L 856,121 C 734,18 604,-33 465,-33 364,-33 286,-8 229,44 172,95 144,157 144,231 144,312 181,383 256,444 331,505 440,535 583,535 622,535 664,533 709,528 754,523 803,515 856,504 L 856,640 C 856,686 835,726 792,760 749,794 685,811 600,811 535,811 443,792 325,754 304,747 290,744 284,744 273,744 264,748 257,756 249,764 245,774 245,786 245,797 248,806 255,813 264,823 302,837 368,854 472,882 551,896 604,896 710,896 793,870 852,818 911,765 941,706 941,640 L 941,84 1053,84 C 1074,84 1088,80 1097,73 1106,65 1110,55 1110,42 1110,30 1106,20 1097,12 1088,4 1074,0 1053,0 Z M 856,418 C 817,429 775,438 731,443 687,448 641,451 592,451 470,451 375,425 306,372 254,333 228,286 228,231 228,180 248,138 288,103 327,68 385,51 461,51 534,51 601,66 664,95 726,124 790,170 856,233 Z"/>
   <glyph unicode="_" horiz-adv-x="1230" d="M 1173,-561 L 56,-561 C 36,-561 22,-557 13,-550 4,-542 0,-532 0,-519 0,-506 4,-496 13,-489 22,-481 36,-477 56,-477 L 1173,-477 C 1194,-477 1208,-481 1217,-489 1225,-496 1229,-506 1229,-519 1229,-532 1225,-542 1217,-550 1208,-557 1194,-561 1173,-561 Z"/>
   <glyph unicode="X" horiz-adv-x="1120" d="M 665,599 L 1064,84 1096,84 C 1116,84 1130,80 1139,73 1148,65 1152,55 1152,42 1152,30 1148,20 1139,12 1130,4 1116,0 1096,0 L 826,0 C 806,0 792,4 783,12 774,20 770,30 770,42 770,55 774,65 783,73 792,80 806,84 826,84 L 960,84 613,530 270,84 404,84 C 424,84 438,80 447,73 456,65 460,55 460,42 460,30 456,20 447,12 438,4 424,0 404,0 L 136,0 C 116,0 102,4 93,12 84,20 80,30 80,42 80,51 83,60 88,67 93,74 99,79 106,81 113,83 133,84 167,84 L 561,599 185,1086 154,1086 C 134,1086 120,1090 111,1098 102,1105 98,1115 98,1128 98,1141 102,1151 111,1159 120,1166 134,1170 154,1170 L 383,1170 C 404,1170 418,1166 427,1159 436,1151 440,1141 440,1128 440,1115 436,1105 427,1098 418,1090 404,1086 383,1086 L 289,1086 613,667 935,1086 841,1086 C 820,1086 806,1090 797,1098 788,1105 784,1115 784,1128 784,1141 788,1151 797,1159 806,1166 820,1170 841,1170 L 1071,1170 C 1091,1170 1105,1166 1114,1159 1123,1151 1127,1141 1127,1128 1127,1115 1123,1105 1114,1098 1105,1090 1091,1086 1071,1086 L 1039,1086 Z"/>
   <glyph unicode="W" horiz-adv-x="1176" d="M 983,0 L 851,0 613,831 380,0 248,0 124,1086 93,1086 C 73,1086 59,1090 50,1098 41,1105 37,1115 37,1128 37,1141 41,1151 50,1159 59,1166 73,1170 93,1170 L 405,1170 C 426,1170 440,1166 449,1159 458,1151 462,1141 462,1128 462,1115 458,1105 449,1098 440,1090 426,1086 405,1086 L 209,1086 320,96 547,911 676,911 909,96 1018,1086 821,1086 C 801,1086 787,1090 778,1098 769,1105 765,1115 765,1128 765,1141 769,1151 778,1159 787,1166 801,1170 821,1170 L 1131,1170 C 1152,1170 1166,1166 1175,1159 1184,1151 1188,1141 1188,1128 1188,1115 1184,1105 1175,1098 1166,1090 1152,1086 1131,1086 L 1100,1086 Z"/>
   <glyph unicode="V" horiz-adv-x="1230" d="M 677,0 L 560,0 137,1086 72,1086 C 57,1086 46,1088 39,1091 32,1094 27,1099 23,1106 18,1113 16,1120 16,1128 16,1136 18,1144 23,1151 27,1158 32,1163 39,1166 46,1169 57,1170 72,1170 L 385,1170 C 401,1170 412,1169 419,1166 425,1163 430,1158 435,1151 439,1144 441,1136 441,1128 441,1120 439,1113 434,1106 429,1099 424,1094 418,1091 411,1088 400,1086 385,1086 L 224,1086 614,84 620,84 1005,1086 845,1086 C 829,1086 818,1088 811,1091 804,1094 799,1099 795,1106 790,1113 788,1120 788,1128 788,1136 790,1144 795,1151 800,1158 805,1163 812,1166 818,1169 829,1170 845,1170 L 1157,1170 C 1173,1170 1184,1169 1191,1166 1198,1163 1203,1158 1208,1151 1212,1144 1214,1136 1214,1128 1214,1120 1212,1113 1207,1106 1202,1099 1197,1094 1191,1091 1184,1088 1173,1086 1157,1086 L 1093,1086 Z"/>
   <glyph unicode="U" horiz-adv-x="1093" d="M 1021,1086 L 1021,384 C 1021,266 982,167 903,87 824,7 729,-33 618,-33 543,-33 477,-17 419,16 361,49 312,98 271,165 230,231 210,304 210,384 L 210,1086 139,1086 C 119,1086 105,1090 96,1098 87,1105 83,1115 83,1128 83,1141 88,1151 97,1160 105,1167 119,1170 139,1170 L 449,1170 C 469,1170 483,1166 492,1159 501,1151 505,1141 505,1128 505,1115 501,1105 492,1098 483,1090 469,1086 449,1086 L 294,1086 294,384 C 294,291 326,213 389,148 452,83 527,51 614,51 669,51 720,64 766,89 811,114 851,153 886,206 920,259 937,318 937,384 L 937,1086 782,1086 C 762,1086 748,1090 739,1098 730,1105 726,1115 726,1128 726,1141 730,1151 739,1159 748,1166 762,1170 782,1170 L 1092,1170 C 1112,1170 1126,1166 1135,1159 1144,1151 1148,1141 1148,1128 1148,1115 1144,1105 1135,1098 1126,1090 1112,1086 1092,1086 Z"/>
   <glyph unicode="T" horiz-adv-x="956" d="M 656,1086 L 656,84 874,84 C 894,84 908,80 917,73 926,65 930,55 930,42 930,30 926,20 917,12 908,4 894,0 874,0 L 353,0 C 333,0 319,4 310,12 301,20 297,30 297,42 297,55 301,65 310,73 319,80 333,84 353,84 L 571,84 571,1086 227,1086 227,795 C 227,774 223,760 216,751 208,742 198,738 185,738 173,738 163,742 155,751 147,760 143,774 143,795 L 143,1170 1084,1170 1084,795 C 1084,774 1080,760 1073,751 1065,742 1055,738 1042,738 1029,738 1019,742 1012,751 1004,760 1000,774 1000,795 L 1000,1086 Z"/>
   <glyph unicode="S" horiz-adv-x="902" d="M 915,1086 L 915,1114 C 915,1134 919,1148 927,1157 934,1166 944,1170 957,1170 970,1170 980,1166 988,1157 995,1148 999,1134 999,1114 L 999,900 C 999,880 995,866 988,857 980,848 970,844 957,844 945,844 935,848 928,856 920,864 916,877 915,895 912,951 883,1001 829,1046 774,1091 703,1113 615,1113 522,1113 449,1089 394,1042 339,994 312,938 312,873 312,840 320,809 335,782 350,755 371,733 396,716 421,699 450,685 482,675 514,664 564,653 632,642 746,623 825,604 868,585 926,559 970,523 1000,477 1029,431 1044,377 1044,314 1044,218 1006,136 929,69 852,1 749,-33 619,-33 473,-33 356,13 269,104 L 269,56 C 269,36 265,22 258,13 250,4 240,0 227,0 215,0 205,4 197,13 189,22 185,36 185,56 L 185,288 C 185,309 189,323 197,332 204,341 214,345 227,345 239,345 249,341 257,333 264,325 268,312 269,294 272,233 305,177 368,127 430,76 514,51 619,51 724,51 808,77 869,130 930,183 960,245 960,317 960,361 948,400 925,435 902,469 867,496 821,516 789,530 722,546 621,563 482,586 381,622 320,670 259,718 228,786 228,875 228,963 263,1039 334,1102 404,1165 497,1197 612,1197 729,1197 830,1160 915,1086 Z"/>
   <glyph unicode="R" horiz-adv-x="1148" d="M 341,522 L 341,84 496,84 C 517,84 531,80 540,73 549,65 553,55 553,42 553,30 549,20 540,12 531,4 517,0 496,0 L 144,0 C 124,0 110,4 101,12 92,20 88,30 88,42 88,55 92,65 101,73 110,80 124,84 144,84 L 257,84 257,1086 144,1086 C 124,1086 110,1090 101,1098 92,1105 88,1115 88,1128 88,1141 92,1151 101,1159 110,1166 124,1170 144,1170 L 652,1170 C 757,1170 845,1137 917,1071 988,1004 1024,929 1024,846 1024,786 1002,730 958,677 913,624 839,579 735,544 795,503 846,456 889,404 932,352 1000,245 1094,84 L 1158,84 C 1178,84 1192,80 1201,73 1210,65 1214,55 1214,42 1214,30 1210,20 1201,12 1192,4 1178,0 1158,0 L 1046,0 C 942,186 862,311 805,374 748,437 682,487 608,522 Z M 341,606 L 570,606 C 643,606 710,619 770,646 829,673 873,704 900,740 927,776 940,813 940,850 940,906 912,959 856,1010 799,1061 731,1086 650,1086 L 341,1086 Z"/>
   <glyph unicode="P" horiz-adv-x="957" d="M 432,480 L 432,84 720,84 C 740,84 754,80 763,73 772,65 776,55 776,42 776,30 772,20 763,12 754,4 740,0 720,0 L 235,0 C 215,0 201,4 192,12 183,20 179,30 179,42 179,55 183,65 192,73 201,80 215,84 235,84 L 348,84 348,1086 235,1086 C 215,1086 201,1090 192,1098 183,1105 179,1115 179,1128 179,1141 183,1151 192,1159 201,1166 215,1170 235,1170 L 723,1170 C 838,1170 933,1136 1006,1068 1079,1000 1115,920 1115,829 1115,775 1103,726 1080,683 1056,640 1027,606 994,581 944,544 892,516 839,499 800,486 752,480 695,480 Z M 432,564 L 700,564 C 762,564 820,578 875,606 929,633 969,667 994,707 1019,747 1031,788 1031,829 1031,895 1003,954 946,1007 889,1060 818,1086 731,1086 L 432,1086 Z"/>
   <glyph unicode="O" horiz-adv-x="1066" d="M 1128,582 C 1128,470 1105,366 1060,271 1015,175 952,100 873,47 793,-6 707,-33 616,-33 481,-33 362,25 259,140 156,255 104,402 104,582 104,763 156,910 259,1025 362,1140 481,1197 616,1197 707,1197 793,1170 872,1117 951,1064 1014,989 1060,894 1105,799 1128,695 1128,582 Z M 1043,582 C 1043,719 1003,841 924,950 845,1059 742,1113 616,1113 498,1113 397,1061 314,958 230,854 188,729 188,582 188,426 232,299 320,200 407,101 506,51 616,51 742,51 845,105 924,214 1003,322 1043,445 1043,582 Z"/>
   <glyph unicode="N" horiz-adv-x="1148" d="M 1026,0 L 918,0 299,1047 299,84 454,84 C 475,84 489,80 498,73 507,65 511,55 511,42 511,30 507,20 498,12 489,4 475,0 454,0 L 145,0 C 124,0 110,4 101,12 92,20 88,30 88,42 88,55 92,65 101,73 110,80 124,84 145,84 L 215,84 215,1086 102,1086 C 82,1086 68,1090 59,1098 50,1105 46,1115 46,1128 46,1141 50,1151 59,1159 68,1166 82,1170 102,1170 L 322,1170 942,121 942,1086 787,1086 C 767,1086 753,1090 744,1098 735,1105 731,1115 731,1128 731,1141 735,1151 744,1159 752,1166 766,1170 787,1170 L 1097,1170 C 1117,1170 1131,1166 1140,1159 1149,1151 1153,1141 1153,1128 1153,1115 1149,1105 1140,1098 1131,1090 1117,1086 1097,1086 L 1026,1086 Z"/>
   <glyph unicode="M" horiz-adv-x="1230" d="M 670,351 L 574,351 251,1086 235,1086 235,84 390,84 C 410,84 424,80 433,73 442,65 446,55 446,42 446,30 442,20 433,12 424,4 410,0 390,0 L 80,0 C 60,0 46,4 37,12 28,20 24,30 24,42 24,55 28,65 37,73 46,80 60,84 80,84 L 151,84 151,1086 98,1086 C 78,1086 64,1090 55,1098 46,1105 42,1115 42,1128 42,1141 46,1151 55,1159 64,1166 78,1170 98,1170 L 304,1170 622,446 935,1170 1141,1170 C 1162,1170 1176,1166 1185,1159 1194,1151 1198,1141 1198,1128 1198,1115 1194,1105 1185,1098 1176,1090 1162,1086 1141,1086 L 1089,1086 1089,84 1159,84 C 1180,84 1194,80 1203,73 1212,65 1216,55 1216,42 1216,30 1212,20 1203,12 1194,4 1180,0 1159,0 L 850,0 C 830,0 816,4 807,12 798,20 793,30 793,42 793,55 797,65 806,73 815,80 829,84 850,84 L 1005,84 1005,1086 987,1086 Z"/>
   <glyph unicode="L" horiz-adv-x="1012" d="M 469,1086 L 469,84 1027,84 1027,418 C 1027,438 1031,452 1039,461 1047,470 1057,474 1070,474 1082,474 1092,470 1100,462 1108,453 1112,439 1112,418 L 1112,0 184,0 C 164,0 150,4 141,12 132,20 128,30 128,42 128,55 132,65 141,73 150,80 164,84 184,84 L 384,84 384,1086 184,1086 C 164,1086 150,1090 141,1098 132,1105 128,1115 128,1128 128,1141 132,1151 141,1159 150,1166 164,1170 184,1170 L 669,1170 C 689,1170 703,1166 712,1159 721,1151 725,1141 725,1128 725,1115 721,1105 712,1098 703,1090 689,1086 669,1086 Z"/>
   <glyph unicode="K" horiz-adv-x="1121" d="M 342,458 L 342,84 497,84 C 518,84 532,80 541,73 550,65 554,55 554,42 554,30 550,20 541,12 532,4 518,0 497,0 L 145,0 C 125,0 111,4 102,12 93,20 89,30 89,42 89,55 93,65 102,73 111,80 125,84 145,84 L 258,84 258,1086 145,1086 C 125,1086 111,1090 102,1098 93,1105 89,1115 89,1128 89,1141 93,1151 102,1159 111,1166 125,1170 145,1170 L 497,1170 C 518,1170 532,1166 541,1159 550,1151 554,1141 554,1128 554,1115 550,1105 541,1098 532,1090 518,1086 497,1086 L 342,1086 342,569 922,1086 830,1086 C 809,1086 795,1090 786,1098 777,1105 773,1115 773,1128 773,1141 777,1151 786,1159 795,1166 809,1170 830,1170 L 1077,1170 C 1097,1170 1111,1166 1120,1159 1129,1151 1133,1141 1133,1128 1133,1115 1129,1105 1120,1098 1111,1090 1097,1086 1077,1086 L 1043,1086 581,673 C 650,645 707,610 752,568 797,526 841,466 883,389 907,346 951,244 1015,84 L 1120,84 C 1141,84 1155,80 1164,73 1173,65 1177,55 1177,42 1177,30 1173,20 1164,12 1155,4 1141,0 1120,0 L 958,0 C 870,241 796,396 736,465 676,534 601,582 511,610 Z"/>
   <glyph unicode="I" horiz-adv-x="794" d="M 657,1086 L 657,84 945,84 C 965,84 979,80 988,73 997,65 1001,55 1001,42 1001,30 997,20 988,12 979,4 965,0 945,0 L 285,0 C 265,0 251,4 242,12 233,20 229,30 229,42 229,55 233,65 242,73 251,80 265,84 285,84 L 573,84 573,1086 285,1086 C 265,1086 251,1090 242,1098 233,1105 229,1115 229,1128 229,1141 233,1151 242,1159 251,1166 265,1170 285,1170 L 945,1170 C 965,1170 979,1166 988,1159 997,1151 1001,1141 1001,1128 1001,1115 997,1105 988,1098 979,1090 965,1086 945,1086 Z"/>
   <glyph unicode="H" horiz-adv-x="1066" d="M 899,566 L 342,566 342,84 455,84 C 475,84 489,80 498,73 507,65 511,55 511,42 511,30 507,20 498,12 489,4 475,0 455,0 L 163,0 C 143,0 129,4 120,12 111,20 107,30 107,42 107,55 111,65 120,73 129,80 143,84 163,84 L 258,84 258,1086 206,1086 C 185,1086 171,1090 162,1098 153,1105 149,1115 149,1128 149,1141 153,1151 162,1159 171,1166 185,1170 206,1170 L 455,1170 C 475,1170 489,1166 498,1159 507,1151 511,1141 511,1128 511,1115 507,1105 498,1098 489,1090 475,1086 455,1086 L 342,1086 342,650 899,650 899,1086 787,1086 C 767,1086 753,1090 744,1098 735,1105 731,1115 731,1128 731,1141 735,1151 744,1159 752,1166 766,1170 787,1170 L 1036,1170 C 1057,1170 1071,1166 1080,1159 1089,1151 1093,1141 1093,1128 1093,1115 1089,1105 1080,1098 1071,1090 1057,1086 1036,1086 L 984,1086 984,84 1079,84 C 1099,84 1113,80 1122,73 1131,65 1135,55 1135,42 1135,30 1131,20 1122,12 1113,4 1099,0 1079,0 L 787,0 C 767,0 753,4 744,12 735,20 731,30 731,42 731,55 735,65 744,73 752,80 766,84 787,84 L 899,84 Z"/>
   <glyph unicode="G" horiz-adv-x="1066" d="M 1071,434 L 1071,74 C 1007,39 943,12 880,-6 816,-24 752,-33 689,-33 599,-33 520,-20 452,7 383,34 325,71 278,119 231,167 194,221 168,280 141,339 128,415 128,506 L 128,660 C 128,752 151,842 197,929 242,1016 305,1082 384,1128 463,1174 550,1197 643,1197 778,1197 893,1160 986,1086 986,1119 987,1138 990,1145 992,1152 997,1158 1004,1163 1011,1168 1020,1170 1029,1170 1041,1170 1051,1166 1059,1157 1067,1148 1071,1134 1071,1114 L 1071,924 C 1071,903 1067,889 1059,881 1051,872 1041,868 1029,868 1018,868 1008,872 1001,880 993,887 989,901 988,920 984,977 947,1023 878,1059 808,1095 732,1113 650,1113 573,1113 503,1096 441,1063 378,1029 320,965 266,870 230,808 212,738 212,659 L 212,506 C 212,367 255,256 340,174 425,92 543,51 693,51 744,51 791,56 834,67 877,78 928,96 986,123 L 986,434 697,434 C 677,434 663,438 654,446 645,453 641,463 641,476 641,489 645,499 654,507 663,515 677,519 697,519 L 1101,518 C 1121,518 1135,514 1144,507 1153,499 1157,489 1157,476 1157,467 1154,459 1149,452 1144,445 1138,440 1131,438 1124,435 1104,434 1071,434 Z"/>
   <glyph unicode="F" horiz-adv-x="1011" d="M 412,565 L 412,84 700,84 C 720,84 734,80 743,73 752,65 756,55 756,42 756,30 752,20 743,12 734,4 720,0 700,0 L 215,0 C 195,0 181,4 172,12 163,20 159,30 159,42 159,55 163,65 172,73 181,80 195,84 215,84 L 328,84 328,1086 215,1086 C 195,1086 181,1090 172,1098 163,1105 159,1115 159,1128 159,1141 164,1151 174,1160 181,1167 195,1170 215,1170 L 1140,1170 1140,881 C 1140,861 1136,847 1128,838 1120,829 1110,825 1098,825 1085,825 1075,829 1067,838 1059,847 1055,861 1055,881 L 1055,1086 412,1086 412,649 713,649 713,744 C 713,764 717,778 725,787 733,796 743,800 756,800 768,800 778,796 786,787 794,778 798,764 798,744 L 798,470 C 798,450 794,436 786,427 778,418 768,414 756,414 743,414 733,418 725,427 717,436 713,450 713,470 L 713,565 Z"/>
   <glyph unicode="E" horiz-adv-x="1011" d="M 341,565 L 341,84 987,84 987,332 C 987,352 991,366 999,375 1006,384 1016,388 1029,388 1042,388 1052,384 1060,375 1067,366 1071,352 1071,332 L 1071,0 144,0 C 124,0 110,4 101,12 92,20 88,30 88,42 88,55 92,65 101,73 110,80 124,84 144,84 L 257,84 257,1086 144,1086 C 124,1086 110,1090 101,1098 92,1105 88,1115 88,1128 88,1141 92,1151 101,1159 110,1166 124,1170 144,1170 L 1027,1170 1027,881 C 1027,861 1023,847 1016,838 1008,829 998,825 985,825 972,825 962,829 955,838 947,847 943,861 943,881 L 943,1086 341,1086 341,649 642,649 642,744 C 642,764 646,778 654,787 662,796 672,800 685,800 697,800 707,796 715,787 723,778 727,764 727,744 L 727,470 C 727,450 723,436 715,427 707,418 697,414 685,414 672,414 662,418 654,427 646,436 642,450 642,470 L 642,565 Z"/>
   <glyph unicode="D" horiz-adv-x="1011" d="M 285,84 L 285,1086 214,1086 C 194,1086 180,1090 171,1098 162,1105 158,1115 158,1128 158,1141 162,1151 171,1159 180,1166 194,1170 214,1170 L 666,1170 C 737,1170 801,1155 860,1126 918,1097 962,1063 993,1026 1046,963 1086,896 1113,825 1132,774 1142,713 1142,643 L 1142,527 C 1142,441 1123,358 1085,277 1047,196 984,126 895,66 829,22 753,0 666,0 L 214,0 C 194,0 180,4 171,12 162,20 158,30 158,42 158,55 162,65 171,73 180,80 194,84 214,84 Z M 369,84 L 674,84 C 745,84 811,107 873,153 934,199 981,254 1012,319 1043,383 1058,446 1058,509 L 1058,661 C 1058,713 1050,759 1033,800 1009,859 975,916 931,969 907,998 872,1025 825,1050 778,1074 728,1086 674,1086 L 369,1086 Z"/>
   <glyph unicode="C" horiz-adv-x="1012" d="M 984,1055 L 984,1114 C 984,1134 988,1148 996,1157 1003,1166 1013,1170 1026,1170 1039,1170 1049,1166 1057,1157 1064,1148 1068,1134 1068,1114 L 1068,881 C 1068,860 1064,846 1057,837 1049,828 1039,824 1026,824 1015,824 1005,828 998,836 990,844 985,857 984,875 981,931 950,981 893,1024 816,1083 728,1113 629,1113 564,1113 503,1099 446,1070 403,1049 369,1024 344,994 300,942 265,884 239,821 220,774 211,722 211,663 L 211,516 C 211,391 256,282 347,190 438,97 543,51 663,51 735,51 800,67 857,98 914,129 969,177 1022,240 1033,254 1046,261 1060,261 1072,261 1082,257 1089,250 1096,243 1100,233 1100,222 1100,207 1086,183 1057,152 1002,91 941,45 873,14 804,-18 735,-33 665,-33 604,-33 543,-21 480,2 432,20 392,41 361,65 330,89 291,130 246,187 200,244 169,296 152,345 135,393 127,446 127,504 L 127,675 C 127,758 149,842 194,929 238,1015 299,1081 376,1128 453,1174 536,1197 626,1197 765,1197 884,1150 984,1055 Z"/>
   <glyph unicode="B" horiz-adv-x="1039" d="M 256,84 L 256,1086 143,1086 C 123,1086 109,1090 100,1098 91,1105 87,1115 87,1128 87,1141 91,1151 100,1159 109,1166 123,1170 143,1170 L 671,1170 C 776,1170 861,1140 927,1080 992,1019 1025,948 1025,867 1025,764 970,681 860,618 947,587 1011,545 1052,493 1093,441 1113,384 1113,321 1113,265 1100,214 1073,168 1046,121 1006,82 951,49 896,16 836,0 771,0 L 143,0 C 123,0 109,4 100,12 91,20 87,30 87,42 87,55 91,65 100,73 109,80 123,84 143,84 Z M 340,650 L 637,650 C 700,650 758,662 811,685 852,704 883,731 906,766 929,801 940,837 940,874 940,927 915,975 866,1020 817,1064 752,1086 673,1086 L 340,1086 Z M 340,84 L 765,84 C 819,84 866,96 906,120 946,144 976,174 997,209 1018,244 1028,281 1028,319 1028,362 1013,403 984,443 954,483 913,513 860,534 807,555 735,565 642,565 L 340,565 Z"/>
   <glyph unicode="A" horiz-adv-x="1230" d="M 891,391 L 339,391 226,84 387,84 C 407,84 421,80 430,73 439,65 443,55 443,42 443,30 439,20 430,12 421,4 407,0 387,0 L 73,0 C 53,0 39,4 30,12 21,20 17,30 17,42 17,55 21,65 30,73 39,80 53,84 73,84 L 138,84 509,1086 261,1086 C 241,1086 227,1090 218,1098 209,1105 205,1115 205,1128 205,1141 209,1151 218,1159 227,1166 241,1170 261,1170 L 684,1170 1094,84 1159,84 C 1179,84 1193,80 1202,73 1211,65 1215,55 1215,42 1215,30 1211,20 1202,12 1193,4 1179,0 1159,0 L 846,0 C 825,0 811,4 802,12 793,20 789,30 789,42 789,55 793,65 802,73 811,80 825,84 846,84 L 1006,84 Z M 859,475 L 627,1086 596,1086 371,475 Z"/>
   <glyph unicode="," horiz-adv-x="465" d="M 448,302 L 721,302 424,-250 C 406,-283 384,-300 359,-300 342,-300 328,-294 317,-283 305,-271 299,-257 299,-240 299,-233 300,-226 302,-218 Z"/>
   <glyph unicode=" " horiz-adv-x="1229"/>
  </font>
 </defs>
 <defs>
  <font id="EmbeddedFont_2" horiz-adv-x="2048">
   <font-face font-family="Courier New embedded" units-per-em="2048" font-weight="bold" font-style="normal" ascent="1693" descent="628"/>
   <missing-glyph horiz-adv-x="2048" d="M 0,0 L 2047,0 2047,2047 0,2047 0,0 Z"/>
   <glyph unicode="x" horiz-adv-x="1176" d="M 768,472 L 1079,205 C 1116,203 1144,193 1163,174 1182,155 1191,131 1191,102 1191,72 1181,48 1160,29 1139,10 1103,0 1054,0 L 821,0 C 772,0 737,10 716,29 695,48 684,73 684,104 684,128 692,149 707,168 722,186 742,198 768,205 L 615,337 459,205 C 490,197 513,185 527,168 540,151 547,130 547,104 547,73 537,48 516,29 495,10 460,0 411,0 L 180,0 C 131,0 96,10 75,29 54,48 43,72 43,103 43,131 52,155 71,174 90,193 118,203 155,205 L 459,473 190,703 C 155,706 128,717 110,736 91,755 82,778 82,806 82,836 93,861 114,880 135,899 170,908 219,908 L 411,908 C 460,908 496,899 517,880 538,861 548,836 548,807 548,768 529,736 492,711 L 616,608 738,713 C 701,739 683,769 683,803 683,835 694,861 715,880 736,899 771,908 820,908 L 1010,908 C 1059,908 1095,899 1116,880 1137,861 1147,836 1147,805 1147,778 1138,755 1120,736 1101,717 1074,706 1038,703 Z"/>
   <glyph unicode="v" horiz-adv-x="1257" d="M 616,249 L 837,703 C 782,703 747,708 732,717 699,738 682,767 682,806 682,836 693,861 714,880 735,899 770,908 819,908 L 1100,908 C 1149,908 1185,899 1206,880 1227,861 1237,836 1237,805 1237,775 1227,751 1206,732 1185,713 1149,703 1100,703 L 1066,703 723,0 509,0 166,703 137,703 C 88,703 53,713 32,732 11,751 0,775 0,806 0,836 11,861 32,880 53,899 88,908 137,908 L 412,908 C 461,908 496,899 517,880 538,861 548,836 548,805 548,767 532,738 500,718 484,708 448,703 393,703 Z"/>
   <glyph unicode="u" horiz-adv-x="1176" d="M 1050,908 L 1050,205 C 1093,205 1125,195 1146,176 1167,157 1177,132 1177,102 1177,72 1167,48 1146,29 1125,10 1089,0 1040,0 L 845,0 845,47 C 786,20 730,0 677,-13 624,-26 573,-33 525,-33 458,-33 399,-19 350,10 301,38 262,77 233,127 212,163 202,208 202,262 L 202,703 167,703 C 118,703 83,713 62,732 41,751 30,775 30,806 30,836 41,861 62,880 83,899 118,908 167,908 L 407,908 407,298 C 407,255 418,223 439,203 460,182 492,172 535,172 576,172 621,180 669,197 716,213 775,242 845,285 L 845,703 771,703 C 722,703 687,713 666,732 645,751 634,775 634,806 634,836 645,861 666,880 687,899 722,908 771,908 Z"/>
   <glyph unicode="t" horiz-adv-x="1093" d="M 564,703 L 564,292 C 564,248 573,219 591,205 619,183 669,172 741,172 846,172 942,194 1031,239 1065,256 1092,265 1111,265 1138,265 1161,255 1181,235 1200,215 1210,191 1210,162 1210,135 1199,112 1178,93 1145,62 1081,33 985,7 888,-20 807,-33 741,-33 614,-33 518,-6 455,50 391,105 359,172 359,252 L 359,703 285,703 C 236,703 201,713 180,732 159,751 148,775 148,806 148,836 159,861 180,880 201,899 236,908 285,908 L 359,908 359,1093 C 359,1142 369,1178 388,1199 407,1220 431,1230 462,1230 492,1230 517,1220 536,1199 555,1178 564,1142 564,1093 L 564,908 943,908 C 992,908 1028,899 1049,880 1070,861 1080,836 1080,805 1080,775 1070,751 1049,732 1028,713 992,703 943,703 Z"/>
   <glyph unicode="s" horiz-adv-x="956" d="M 836,668 C 803,689 768,704 731,715 694,725 656,730 616,730 537,730 474,717 427,691 406,680 396,667 396,654 396,639 410,624 438,609 459,598 507,588 581,578 717,559 812,541 865,522 935,497 989,461 1027,412 1065,363 1084,312 1084,258 1084,185 1052,123 987,74 894,3 774,-33 626,-33 567,-33 512,-28 462,-18 411,-7 365,8 323,28 313,19 302,13 291,8 280,3 268,1 256,1 224,1 199,12 180,33 161,54 151,89 151,138 L 151,207 C 151,256 161,292 180,313 199,334 223,344 254,344 279,344 299,337 316,324 333,310 346,286 355,253 386,226 424,206 468,193 512,179 563,172 620,172 714,172 787,187 839,216 864,231 876,246 876,262 876,289 858,311 823,328 788,345 715,360 604,372 439,389 329,423 274,472 219,521 191,581 191,652 191,725 222,786 284,835 368,902 478,935 614,935 661,935 707,931 751,922 794,913 836,899 876,880 889,889 901,896 912,901 923,906 933,908 942,908 970,908 993,898 1012,877 1031,856 1040,820 1040,771 L 1040,721 C 1040,676 1035,646 1024,630 1003,599 974,584 937,584 912,584 891,592 872,607 853,622 841,643 836,668 Z"/>
   <glyph unicode="r" horiz-adv-x="1093" d="M 572,908 L 572,780 C 658,842 726,883 776,904 825,925 872,935 915,935 982,935 1046,910 1109,861 1152,828 1173,794 1173,759 1173,730 1163,705 1143,685 1122,664 1098,654 1069,654 1044,654 1017,667 989,692 961,717 936,730 914,730 885,730 843,712 786,676 729,640 657,586 572,514 L 572,205 864,205 C 913,205 949,196 970,177 991,158 1001,133 1001,102 1001,72 991,48 970,29 949,10 913,0 864,0 L 245,0 C 196,0 161,10 140,29 119,48 108,72 108,103 108,133 119,158 140,177 161,196 196,205 245,205 L 367,205 367,703 293,703 C 244,703 209,713 188,732 167,751 156,775 156,806 156,836 167,861 188,880 209,899 244,908 293,908 Z"/>
   <glyph unicode="p" horiz-adv-x="1202" d="M 360,113 L 360,-223 483,-223 C 532,-223 568,-233 589,-252 610,-271 620,-295 620,-326 620,-356 610,-381 589,-400 568,-419 532,-428 483,-428 L 120,-428 C 71,-428 36,-419 15,-400 -7,-381 -17,-356 -17,-326 -17,-295 -6,-271 15,-252 36,-233 71,-223 120,-223 L 155,-223 155,703 120,703 C 71,703 36,713 15,732 -7,751 -17,775 -17,806 -17,836 -7,861 15,880 36,899 71,908 120,908 L 360,908 360,838 C 408,871 458,895 509,911 560,927 613,935 667,935 807,935 926,888 1025,793 1124,698 1173,589 1173,466 1173,331 1115,219 998,131 901,58 791,21 669,21 616,21 564,29 513,44 462,59 411,82 360,113 Z M 968,465 C 968,494 957,530 934,575 911,619 877,656 830,686 783,715 727,730 664,730 562,730 481,692 421,615 380,562 360,512 360,463 360,408 389,355 448,304 506,252 578,226 664,226 751,226 823,252 881,303 939,354 968,408 968,465 Z"/>
   <glyph unicode="o" horiz-adv-x="1066" d="M 1147,437 C 1147,358 1125,282 1082,209 1038,135 973,76 887,33 800,-11 710,-33 616,-33 523,-33 433,-12 348,32 263,75 198,133 153,207 108,281 86,358 86,439 86,521 109,602 154,681 199,760 265,822 350,867 435,912 523,935 616,935 709,935 799,912 886,866 972,819 1037,757 1081,679 1125,600 1147,520 1147,437 Z M 942,436 C 942,502 918,563 871,618 806,693 721,730 616,730 523,730 446,700 384,641 322,582 291,513 291,435 291,371 322,311 385,256 448,200 525,172 616,172 708,172 785,200 848,256 911,311 942,371 942,436 Z"/>
   <glyph unicode="n" horiz-adv-x="1176" d="M 407,908 L 407,839 C 444,871 486,895 531,911 576,927 624,935 677,935 798,935 894,897 965,822 1021,762 1049,683 1049,586 L 1049,205 C 1092,205 1124,196 1145,177 1166,158 1176,133 1176,102 1176,72 1166,48 1145,29 1124,10 1088,0 1039,0 L 854,0 C 805,0 770,10 749,29 728,48 717,72 717,103 717,133 727,158 748,177 769,196 801,205 844,205 L 844,592 C 844,637 832,669 808,690 777,717 730,730 667,730 620,730 578,721 543,703 507,684 462,645 407,586 L 407,205 C 460,205 494,200 509,190 542,170 558,141 558,102 558,72 548,48 527,29 506,10 470,0 421,0 L 188,0 C 139,0 104,10 83,29 62,48 51,72 51,103 51,140 67,169 99,190 115,200 149,205 202,205 L 202,703 C 159,703 127,713 106,732 85,751 75,776 75,806 75,836 86,861 107,880 128,899 163,908 212,908 Z"/>
   <glyph unicode="l" horiz-adv-x="1012" d="M 717,1297 L 717,205 963,205 C 1012,205 1048,196 1069,177 1090,158 1100,133 1100,102 1100,72 1090,48 1069,29 1048,10 1012,0 963,0 L 266,0 C 217,0 182,10 161,29 140,48 129,72 129,103 129,133 140,158 161,177 182,196 217,205 266,205 L 512,205 512,1092 347,1092 C 298,1092 263,1102 242,1121 221,1140 210,1164 210,1195 210,1225 221,1250 242,1269 263,1288 298,1297 347,1297 Z"/>
   <glyph unicode="k" horiz-adv-x="1148" d="M 446,341 L 446,0 206,0 C 157,0 122,10 101,29 80,48 69,72 69,103 69,133 80,158 101,177 122,196 157,205 206,205 L 241,205 241,1092 206,1092 C 157,1092 122,1102 101,1121 80,1140 69,1164 69,1195 69,1225 80,1250 101,1269 122,1288 157,1297 206,1297 L 446,1297 446,606 606,735 C 589,764 581,787 581,805 581,836 591,861 612,880 633,899 668,908 717,908 L 951,908 C 1000,908 1036,899 1057,880 1078,861 1088,836 1088,805 1088,775 1078,751 1057,732 1036,713 1000,703 951,703 L 894,703 645,501 980,205 1040,205 C 1089,205 1125,196 1146,177 1167,158 1177,133 1177,102 1177,72 1167,48 1146,29 1125,10 1089,0 1040,0 L 804,0 C 755,0 720,10 699,29 678,48 667,72 667,103 667,129 678,155 701,180 L 484,372 Z"/>
   <glyph unicode="i" horiz-adv-x="1012" d="M 688,1297 L 688,1080 444,1080 444,1297 Z M 716,908 L 716,205 962,205 C 1011,205 1047,196 1068,177 1089,158 1099,133 1099,102 1099,72 1089,48 1068,29 1047,10 1011,0 962,0 L 265,0 C 216,0 181,10 160,29 139,48 128,72 128,103 128,133 139,158 160,177 181,196 216,205 265,205 L 511,205 511,703 346,703 C 297,703 262,713 241,732 220,751 209,775 209,806 209,836 220,861 241,880 262,899 297,908 346,908 Z"/>
   <glyph unicode="h" horiz-adv-x="1203" d="M 403,1297 L 403,860 C 446,885 489,904 533,917 576,929 620,935 665,935 736,935 799,923 854,899 909,875 955,837 992,786 1028,734 1046,669 1046,590 L 1046,205 C 1098,205 1132,200 1148,190 1180,169 1196,140 1196,102 1196,72 1186,48 1165,29 1144,10 1109,0 1060,0 L 826,0 C 777,0 743,10 722,29 701,48 690,72 690,103 690,140 706,169 738,190 755,201 789,206 840,205 L 840,576 C 840,629 828,666 804,687 773,716 726,730 665,730 620,730 580,721 545,704 510,686 462,648 403,589 L 403,205 C 456,205 490,200 505,190 538,169 554,140 554,102 554,72 544,48 523,29 502,10 466,0 417,0 L 184,0 C 135,0 100,10 79,29 58,48 47,72 47,103 47,140 63,169 96,190 112,201 146,206 198,205 L 198,1092 163,1092 C 114,1092 79,1102 58,1121 37,1140 26,1164 26,1195 26,1225 37,1250 58,1269 79,1288 114,1297 163,1297 Z"/>
   <glyph unicode="g" horiz-adv-x="1175" d="M 840,847 L 840,908 1080,908 C 1129,908 1165,899 1186,880 1207,861 1217,836 1217,805 1217,775 1207,751 1186,732 1165,713 1129,703 1080,703 L 1045,703 1045,-43 C 1045,-115 1030,-178 1000,-232 969,-285 923,-331 860,-370 797,-409 727,-428 648,-428 L 416,-428 C 367,-428 332,-419 311,-400 290,-381 279,-356 279,-326 279,-295 290,-271 311,-252 332,-233 367,-223 416,-223 L 642,-223 C 705,-223 753,-206 788,-172 823,-138 840,-95 840,-43 L 840,57 C 795,28 749,6 702,-9 655,-24 606,-31 557,-31 418,-31 301,16 207,109 113,202 66,316 66,453 66,590 113,706 207,799 301,892 418,938 557,938 609,938 659,931 706,916 753,901 797,878 840,847 Z M 839,454 C 839,529 811,595 756,650 700,705 633,733 555,733 477,733 410,705 355,650 299,595 271,529 271,454 271,378 299,313 355,258 410,203 477,175 555,175 633,175 700,203 756,258 811,313 839,378 839,454 Z"/>
   <glyph unicode="f" horiz-adv-x="1038" d="M 613,703 L 613,205 905,205 C 954,205 990,196 1011,177 1032,158 1042,133 1042,102 1042,72 1032,48 1011,29 990,10 954,0 905,0 L 286,0 C 237,0 202,10 181,29 160,48 149,72 149,103 149,133 160,158 181,177 202,196 237,205 286,205 L 408,205 408,703 310,703 C 261,703 226,713 205,732 184,751 173,775 173,806 173,836 184,861 205,880 226,899 261,908 310,908 L 408,908 408,986 C 408,1075 442,1150 509,1209 576,1268 673,1297 800,1297 857,1297 922,1292 997,1282 1071,1271 1119,1257 1140,1238 1161,1219 1171,1195 1171,1166 1171,1135 1162,1109 1143,1090 1124,1070 1101,1060 1074,1060 1061,1060 1042,1062 1017,1067 932,1084 857,1092 792,1092 724,1092 677,1082 652,1062 626,1041 613,1016 613,986 L 613,908 929,908 C 978,908 1014,899 1035,880 1056,861 1066,836 1066,805 1066,775 1056,751 1035,732 1014,713 978,703 929,703 Z"/>
   <glyph unicode="e" horiz-adv-x="1093" d="M 1129,350 L 288,350 C 309,297 347,254 402,221 456,188 529,172 622,172 698,172 799,188 925,221 977,234 1013,241 1033,241 1060,241 1083,231 1102,212 1121,193 1130,168 1130,139 1130,112 1120,90 1100,71 1073,46 1008,23 905,1 802,-22 702,-33 607,-33 443,-33 312,13 214,106 115,199 66,313 66,448 66,592 119,709 226,800 332,890 454,935 593,935 676,935 753,920 823,891 892,862 944,830 978,796 1026,747 1066,686 1097,613 1118,562 1129,504 1129,437 Z M 902,555 C 871,614 830,658 779,687 728,716 668,730 598,730 529,730 469,716 418,687 367,658 326,614 294,555 Z"/>
   <glyph unicode="d" horiz-adv-x="1230" d="M 1085,1297 L 1085,205 1120,205 C 1169,205 1204,196 1225,177 1246,158 1257,133 1257,102 1257,72 1247,48 1226,29 1205,10 1169,0 1120,0 L 880,0 880,50 C 833,23 785,2 734,-12 683,-26 630,-33 575,-33 421,-33 297,12 203,101 109,190 62,300 62,433 62,572 111,690 210,788 309,886 429,935 571,935 624,935 677,927 728,911 779,894 830,870 880,837 L 880,1092 845,1092 C 796,1092 761,1102 740,1121 719,1140 708,1164 708,1194 708,1225 719,1250 740,1269 761,1288 796,1297 845,1297 Z M 880,427 C 880,512 850,583 791,642 732,701 659,730 573,730 488,730 415,701 356,642 297,583 267,513 267,430 267,355 294,293 347,245 400,196 476,172 573,172 670,172 745,196 799,245 853,293 880,354 880,427 Z"/>
   <glyph unicode="c" horiz-adv-x="1066" d="M 934,871 C 959,894 984,906 1010,906 1039,906 1064,896 1083,875 1102,854 1111,819 1111,770 L 1111,638 C 1111,589 1102,554 1083,533 1064,512 1039,502 1008,502 980,502 956,510 937,526 923,538 912,563 904,600 896,637 877,664 846,682 792,714 723,730 639,730 542,730 465,702 407,645 348,588 319,517 319,430 319,350 347,287 403,241 459,194 552,171 682,171 767,171 837,180 891,197 923,208 953,226 982,252 1011,277 1037,290 1060,290 1088,290 1112,280 1133,259 1153,238 1163,214 1163,186 1163,141 1132,98 1070,57 978,-4 843,-34 666,-34 507,-34 383,-1 294,65 174,154 114,275 114,429 114,575 163,696 260,792 357,887 484,935 641,935 698,935 750,930 799,919 848,908 893,892 934,871 Z"/>
   <glyph unicode="b" horiz-adv-x="1202" d="M 356,1297 L 356,837 C 406,870 457,894 509,911 560,927 612,935 665,935 807,935 927,886 1026,788 1125,690 1174,572 1174,433 1174,300 1127,190 1033,101 939,12 815,-33 661,-33 606,-33 554,-26 503,-12 452,2 403,23 356,50 L 356,0 116,0 C 67,0 32,10 11,29 -11,48 -21,72 -21,103 -21,133 -10,158 11,177 32,196 67,205 116,205 L 151,205 151,1092 116,1092 C 67,1092 32,1102 11,1121 -11,1140 -21,1164 -21,1195 -21,1225 -11,1250 11,1269 32,1288 67,1297 116,1297 Z M 969,427 C 969,512 939,583 880,642 821,701 748,730 662,730 577,730 504,701 445,642 386,583 356,513 356,430 356,355 383,293 436,245 489,196 565,172 662,172 759,172 835,196 889,245 942,293 969,354 969,427 Z"/>
   <glyph unicode="a" horiz-adv-x="1121" d="M 799,0 L 799,48 C 748,21 691,0 629,-14 567,-27 511,-34 460,-34 350,-34 261,-5 192,54 123,112 89,176 89,247 89,333 133,413 221,487 308,560 429,597 584,597 646,597 718,590 799,577 L 799,626 C 799,657 786,682 760,701 733,720 683,730 609,730 548,730 470,718 373,694 337,685 309,681 289,681 262,681 239,691 220,711 201,730 191,755 191,786 191,803 194,818 201,831 208,844 217,854 229,862 241,869 266,878 304,889 355,903 406,914 459,923 512,931 559,935 602,935 729,935 828,908 899,853 969,798 1004,722 1004,627 L 1004,205 1039,205 C 1088,205 1124,196 1145,177 1166,158 1176,133 1176,102 1176,72 1166,48 1145,29 1124,10 1088,0 1039,0 Z M 799,367 C 717,383 641,391 572,391 489,391 417,371 357,330 320,304 301,278 301,251 301,232 310,216 328,204 361,182 407,171 465,171 514,171 570,181 633,200 695,219 750,246 799,279 Z"/>
   <glyph unicode="_" horiz-adv-x="1421" d="M 1182,-615 L 56,-615 C 7,-615 -29,-606 -50,-587 -71,-568 -81,-544 -81,-513 -81,-482 -71,-458 -50,-439 -29,-420 7,-410 56,-410 L 1182,-410 C 1231,-410 1266,-420 1287,-439 1308,-458 1318,-482 1318,-513 1318,-543 1308,-568 1287,-587 1266,-606 1231,-615 1182,-615 Z"/>
   <glyph unicode="]" horiz-adv-x="492" d="M 514,-115 L 514,1089 390,1089 C 341,1089 306,1099 285,1118 264,1137 253,1161 253,1191 253,1222 264,1247 285,1266 306,1285 341,1294 390,1294 L 719,1294 719,-320 391,-320 C 342,-320 307,-311 286,-292 265,-273 254,-248 254,-217 254,-187 265,-163 286,-144 307,-125 342,-115 391,-115 Z"/>
   <glyph unicode="[" horiz-adv-x="492" d="M 715,1089 L 715,-115 839,-115 C 888,-115 924,-124 945,-143 966,-162 976,-186 976,-217 976,-248 966,-273 945,-292 924,-311 888,-320 839,-320 L 510,-320 510,1294 838,1294 C 887,1294 923,1285 944,1266 965,1247 975,1222 975,1191 975,1161 965,1137 944,1118 923,1099 887,1089 838,1089 Z"/>
   <glyph unicode="X" horiz-adv-x="1230" d="M 749,618 L 1091,205 C 1132,204 1162,195 1183,176 1203,157 1213,132 1213,102 1213,72 1203,48 1182,29 1161,10 1125,0 1076,0 L 845,0 C 796,0 762,10 741,29 720,48 709,72 709,103 709,132 719,156 738,175 757,194 786,204 825,205 L 619,459 411,205 C 449,204 478,193 497,174 516,155 526,131 526,102 526,72 516,48 495,29 474,10 438,0 389,0 L 159,0 C 110,0 75,10 54,29 33,48 22,72 22,103 22,132 32,157 53,176 74,195 104,205 144,205 L 484,620 160,1007 C 120,1008 90,1019 71,1038 51,1057 41,1081 41,1110 41,1141 52,1166 73,1185 94,1204 129,1213 178,1213 L 367,1212 C 416,1212 452,1203 473,1184 494,1165 504,1141 504,1110 504,1087 497,1067 484,1048 475,1037 456,1023 426,1007 L 617,778 804,1007 C 774,1023 755,1037 746,1048 733,1067 726,1087 726,1110 726,1140 737,1165 758,1184 779,1203 814,1213 863,1213 L 1051,1212 C 1100,1212 1136,1203 1157,1184 1178,1165 1188,1141 1188,1110 1188,1081 1178,1056 1158,1037 1137,1018 1108,1008 1069,1007 Z"/>
   <glyph unicode="T" horiz-adv-x="1066" d="M 714,1007 L 714,205 852,205 C 901,205 937,196 958,177 979,158 989,133 989,102 989,72 979,48 958,29 937,10 901,0 852,0 L 372,0 C 323,0 288,10 267,29 246,48 235,72 235,103 235,133 246,158 267,177 288,196 323,205 372,205 L 509,205 509,1007 287,1007 287,813 C 287,764 278,729 259,708 240,687 215,676 184,676 154,676 130,687 111,708 92,729 82,764 82,813 L 82,1213 1144,1212 1144,813 C 1144,764 1135,729 1116,708 1097,687 1072,676 1041,676 1011,676 987,687 968,708 949,729 939,764 939,813 L 939,1007 Z"/>
   <glyph unicode="R" horiz-adv-x="1258" d="M 403,463 L 403,205 477,205 C 526,205 562,196 583,177 604,158 614,133 614,102 614,72 604,48 583,29 562,10 526,0 477,0 L 166,0 C 117,0 82,10 61,29 40,48 29,72 29,103 29,133 40,158 61,177 82,196 117,205 166,205 L 198,205 198,1007 166,1007 C 117,1007 82,1017 61,1036 40,1055 29,1079 29,1110 29,1141 40,1166 61,1185 82,1204 117,1213 166,1213 L 630,1212 C 775,1212 887,1176 967,1105 1046,1033 1086,946 1086,843 1086,779 1067,721 1030,669 993,616 936,570 861,529 904,491 951,442 1000,383 1031,345 1072,286 1124,205 1176,205 1210,200 1227,189 1257,168 1272,139 1272,102 1272,72 1262,48 1241,29 1220,10 1185,0 1136,0 L 1019,0 C 853,257 715,411 606,463 Z M 403,668 L 563,668 C 622,668 675,677 722,695 785,719 827,744 849,771 870,798 881,824 881,850 881,889 860,925 819,958 778,991 717,1007 638,1007 L 403,1007 Z"/>
   <glyph unicode="P" horiz-adv-x="1094" d="M 496,416 L 496,205 703,205 C 752,205 788,196 809,177 830,158 840,133 840,102 840,72 830,48 809,29 788,10 752,0 703,0 L 259,0 C 210,0 175,10 154,29 133,48 122,72 122,103 122,133 133,158 154,177 175,196 210,205 259,205 L 291,205 291,1007 259,1007 C 210,1007 175,1017 154,1036 133,1055 122,1079 122,1110 122,1141 133,1166 154,1185 175,1204 210,1213 259,1213 L 731,1212 C 870,1212 980,1174 1061,1099 1142,1023 1182,931 1182,822 1182,762 1168,705 1141,652 1120,612 1086,573 1038,534 989,495 940,465 890,446 839,426 773,416 690,416 Z M 496,621 L 686,621 C 775,621 846,641 899,682 951,722 977,770 977,827 977,875 956,917 914,953 871,989 811,1007 732,1007 L 496,1007 Z"/>
   <glyph unicode="N" horiz-adv-x="1257" d="M 358,825 L 358,205 432,205 C 481,205 517,196 538,177 559,158 569,133 569,102 569,72 559,48 538,29 517,10 481,0 432,0 L 163,0 C 114,0 79,10 58,29 37,48 26,72 26,103 26,132 36,157 57,176 78,195 110,205 153,205 L 153,1007 121,1007 C 72,1007 37,1017 16,1036 -6,1055 -16,1079 -16,1110 -16,1141 -6,1166 16,1185 37,1204 72,1213 121,1213 L 358,1212 882,390 882,1007 808,1007 C 759,1007 724,1017 703,1036 682,1055 671,1079 671,1110 671,1141 682,1166 703,1185 724,1204 759,1213 808,1213 L 1077,1212 C 1126,1212 1162,1203 1183,1184 1204,1165 1214,1141 1214,1110 1214,1080 1204,1055 1183,1036 1162,1017 1131,1007 1088,1007 L 1088,0 885,0 Z"/>
   <glyph unicode="M" horiz-adv-x="1340" d="M 294,816 L 294,205 368,205 C 417,205 453,196 474,177 495,158 505,133 505,102 505,72 495,48 474,29 453,10 417,0 368,0 L 99,0 C 50,0 15,10 -7,29 -28,48 -38,72 -38,103 -38,133 -28,158 -7,177 14,196 46,205 89,205 L 89,1007 C 53,1010 26,1021 8,1040 -11,1059 -20,1082 -20,1110 -20,1141 -10,1166 12,1185 33,1204 68,1213 117,1213 L 342,1212 621,595 895,1213 1122,1212 C 1171,1212 1207,1203 1228,1184 1249,1165 1259,1141 1259,1110 1259,1082 1250,1059 1231,1040 1212,1021 1185,1010 1150,1007 L 1150,205 C 1193,205 1225,195 1246,176 1267,157 1277,132 1277,102 1277,72 1267,48 1246,29 1225,10 1189,0 1140,0 L 870,0 C 821,0 787,10 766,29 745,48 734,72 734,103 734,133 745,158 766,177 787,196 821,205 870,205 L 945,205 945,816 710,288 532,288 Z"/>
   <glyph unicode="L" horiz-adv-x="1148" d="M 529,1007 L 529,205 971,205 971,399 C 971,448 981,484 1000,505 1019,526 1043,536 1074,536 1104,536 1129,526 1148,505 1167,484 1176,448 1176,399 L 1176,0 205,0 C 156,0 121,10 100,29 79,48 68,72 68,103 68,133 79,158 100,177 121,196 156,205 205,205 L 324,205 324,1007 205,1007 C 156,1007 121,1017 100,1036 79,1055 68,1079 68,1110 68,1141 79,1166 100,1185 121,1204 156,1213 205,1213 L 649,1212 C 698,1212 734,1203 755,1184 776,1165 786,1141 786,1110 786,1079 776,1055 755,1036 734,1017 698,1007 649,1007 Z"/>
   <glyph unicode="K" horiz-adv-x="1257" d="M 401,432 L 401,205 475,205 C 524,205 560,196 581,177 602,158 612,133 612,102 612,72 602,48 581,29 560,10 524,0 475,0 L 164,0 C 115,0 80,10 59,29 38,48 27,72 27,103 27,133 38,158 59,177 80,196 115,205 164,205 L 196,205 196,1007 164,1007 C 115,1007 80,1017 59,1036 38,1055 27,1079 27,1110 27,1141 38,1166 59,1185 80,1204 115,1213 164,1213 L 475,1212 C 524,1212 560,1203 581,1184 602,1165 612,1141 612,1110 612,1079 602,1055 581,1036 560,1017 524,1007 475,1007 L 401,1007 401,703 765,1016 C 744,1031 729,1046 721,1059 713,1072 709,1089 709,1108 709,1139 720,1165 741,1184 762,1203 797,1213 846,1213 L 1055,1212 C 1104,1212 1140,1203 1161,1184 1182,1165 1192,1141 1192,1110 1192,1080 1182,1055 1161,1036 1140,1017 1107,1007 1062,1007 L 694,685 C 763,646 827,586 888,505 948,424 1001,324 1048,205 L 1103,205 C 1152,205 1187,196 1208,177 1229,158 1239,133 1239,102 1239,72 1229,48 1208,29 1187,10 1152,0 1103,0 L 917,0 C 874,102 828,199 777,292 736,367 697,422 660,457 623,491 578,518 527,539 Z"/>
   <glyph unicode="F" horiz-adv-x="1148" d="M 474,505 L 474,205 684,205 C 733,205 769,196 790,177 811,158 821,133 821,102 821,72 811,48 790,29 769,10 733,0 684,0 L 237,0 C 188,0 153,10 132,29 111,48 100,72 100,103 100,133 111,158 132,177 153,196 188,205 237,205 L 269,205 269,1007 237,1007 C 188,1007 153,1017 132,1036 111,1055 100,1079 100,1110 100,1141 111,1166 132,1185 153,1204 188,1213 237,1213 L 1202,1212 1202,899 C 1202,850 1193,816 1174,795 1155,774 1130,763 1099,763 1069,763 1045,773 1026,794 1007,815 997,850 997,899 L 997,1007 474,1007 474,710 654,710 C 654,763 659,798 669,813 690,846 719,862 757,862 787,862 812,852 831,831 850,810 859,774 859,725 L 859,489 C 859,440 850,405 831,384 812,363 787,352 756,352 719,352 690,368 669,401 659,416 654,451 654,505 Z"/>
   <glyph unicode="E" horiz-adv-x="1121" d="M 404,506 L 404,205 927,205 927,316 C 927,365 937,401 956,422 975,443 999,453 1030,453 1060,453 1085,443 1104,422 1123,401 1132,365 1132,316 L 1132,0 167,0 C 118,0 83,10 62,29 41,48 30,72 30,103 30,133 41,158 62,177 83,196 118,205 167,205 L 199,205 199,1007 167,1007 C 118,1007 83,1017 62,1036 41,1055 30,1079 30,1110 30,1141 41,1166 62,1185 83,1204 118,1213 167,1213 L 1087,1212 1087,900 C 1087,851 1078,817 1059,796 1040,775 1016,764 985,764 954,764 930,774 911,795 892,816 882,851 882,900 L 882,1007 404,1007 404,711 584,711 C 584,764 589,799 599,814 620,847 649,863 687,863 717,863 742,853 761,832 780,811 789,775 789,726 L 789,490 C 789,445 784,415 773,400 752,369 723,353 687,353 649,353 620,369 599,402 589,417 584,452 584,506 Z"/>
   <glyph unicode="D" horiz-adv-x="1121" d="M 156,205 L 156,1007 C 113,1008 81,1018 60,1037 39,1056 29,1080 29,1110 29,1141 40,1166 61,1185 82,1204 117,1213 166,1213 L 595,1212 C 662,1212 727,1200 791,1175 854,1150 905,1119 944,1081 973,1052 1004,1013 1036,963 1067,913 1091,863 1107,814 1123,765 1131,704 1131,633 L 1131,535 C 1131,448 1116,372 1087,305 1058,238 1019,183 972,141 924,98 879,67 837,47 770,16 684,0 578,0 L 166,0 C 117,0 82,10 61,29 40,48 29,72 29,103 29,133 40,158 61,177 82,196 113,206 156,205 Z M 361,205 L 579,205 C 660,205 722,217 763,240 817,271 858,310 885,357 912,404 926,466 926,541 L 926,638 C 926,703 914,759 889,808 850,884 807,936 759,965 710,993 650,1007 577,1007 L 361,1007 Z"/>
   <glyph unicode="C" horiz-adv-x="1120" d="M 936,1160 C 949,1177 963,1190 978,1199 993,1208 1009,1212 1026,1212 1056,1212 1081,1202 1100,1181 1119,1160 1128,1125 1128,1076 L 1128,902 C 1128,853 1119,818 1100,797 1081,776 1056,765 1026,765 999,765 977,773 960,788 943,803 931,832 923,874 918,902 909,924 895,939 868,969 830,993 781,1011 732,1029 682,1038 633,1038 572,1038 515,1025 464,998 413,971 367,928 328,868 289,808 269,737 269,654 L 269,521 C 269,422 305,340 377,274 448,208 548,175 675,175 751,175 815,185 868,206 899,218 931,242 966,277 987,298 1004,312 1016,319 1028,325 1042,328 1057,328 1084,328 1108,318 1129,297 1150,276 1160,252 1160,224 1160,196 1146,166 1118,134 1077,87 1025,51 961,24 875,-12 780,-30 676,-30 555,-30 445,-5 348,45 269,85 202,148 147,235 92,321 64,415 64,517 L 64,656 C 64,763 89,862 139,955 188,1047 257,1118 345,1168 433,1218 526,1243 625,1243 684,1243 740,1236 792,1223 843,1209 891,1188 936,1160 Z"/>
   <glyph unicode="B" horiz-adv-x="1203" d="M 196,205 L 196,1007 164,1007 C 115,1007 80,1017 59,1036 38,1055 27,1079 27,1110 27,1141 38,1166 59,1185 80,1204 115,1213 164,1213 L 678,1213 C 801,1213 899,1179 974,1111 1049,1042 1086,961 1086,867 1086,822 1077,780 1060,741 1043,702 1016,665 981,632 1046,593 1094,548 1127,497 1159,445 1175,386 1175,321 1175,269 1163,221 1140,176 1123,142 1101,115 1076,95 1042,67 1000,44 951,27 902,9 840,0 766,0 L 164,0 C 115,0 80,10 59,29 38,48 27,72 27,103 27,133 38,158 59,177 80,196 115,205 164,205 Z M 401,709 L 626,709 C 707,709 774,729 827,770 863,797 881,831 881,872 881,908 864,940 830,967 796,994 742,1007 668,1007 L 401,1007 Z M 401,205 L 755,205 C 838,205 897,217 931,242 957,261 970,287 970,322 970,363 944,404 893,444 842,484 768,504 672,504 L 401,504 Z"/>
   <glyph unicode="A" horiz-adv-x="1340" d="M 865,330 L 367,330 317,205 367,205 C 416,205 452,196 473,177 494,158 504,133 504,102 504,72 494,48 473,29 452,10 416,0 367,0 L 91,0 C 42,0 7,10 -15,29 -36,48 -46,72 -46,103 -46,134 -35,159 -13,178 9,197 45,206 96,205 L 418,1007 284,1007 C 235,1007 200,1017 179,1036 158,1055 147,1079 147,1110 147,1141 158,1166 179,1185 200,1204 235,1213 284,1213 L 727,1212 1135,205 C 1183,205 1215,200 1230,189 1261,167 1276,138 1276,102 1276,72 1266,48 1245,29 1224,10 1189,0 1140,0 L 864,0 C 815,0 780,10 759,29 738,48 727,72 727,103 727,133 738,158 759,177 780,196 815,205 864,205 L 914,205 Z M 780,535 L 615,941 449,535 Z"/>
   <glyph unicode=":" horiz-adv-x="356" d="M 769,771 C 769,732 755,700 728,674 701,648 663,635 615,635 567,635 529,648 502,674 475,700 461,732 461,771 461,810 475,842 502,868 529,894 567,907 615,907 663,907 701,894 728,868 755,842 769,810 769,771 Z M 771,100 C 771,61 757,29 730,3 703,-23 665,-36 617,-36 569,-36 531,-23 504,3 477,29 463,61 463,100 463,139 477,171 504,197 531,223 569,236 617,236 665,236 703,223 730,197 757,171 771,139 771,100 Z"/>
   <glyph unicode="9" horiz-adv-x="930" d="M 903,538 C 852,494 805,463 762,445 719,426 674,417 627,417 517,417 421,461 339,549 256,637 215,746 215,877 215,979 243,1072 300,1155 377,1270 486,1327 627,1327 728,1327 816,1297 891,1237 966,1176 1022,1089 1057,976 1092,862 1110,743 1110,620 1110,411 1029,243 867,116 742,19 604,-30 455,-30 372,-30 308,-13 263,20 232,42 217,71 217,107 217,136 227,161 247,181 266,200 290,210 319,210 335,210 353,205 373,195 399,182 426,175 455,175 558,175 654,210 741,281 828,351 882,437 903,538 Z M 874,861 C 852,956 820,1023 777,1063 734,1102 684,1122 629,1122 571,1122 522,1100 481,1056 440,1011 420,952 420,879 420,802 441,740 482,693 523,646 569,622 622,622 715,622 799,702 874,861 Z"/>
   <glyph unicode="6" horiz-adv-x="930" d="M 422,700 C 471,741 518,772 563,791 608,810 655,819 706,819 813,819 907,776 988,691 1069,606 1109,499 1109,370 1109,251 1072,154 997,81 922,7 820,-30 691,-30 584,-30 495,-5 426,45 357,95 304,172 269,276 234,380 216,496 216,624 216,777 251,905 321,1007 391,1108 473,1187 568,1243 663,1299 763,1327 868,1327 951,1327 1016,1311 1062,1278 1092,1256 1107,1228 1107,1194 1107,1164 1097,1139 1077,1119 1057,1098 1033,1088 1005,1088 989,1088 966,1096 936,1112 918,1121 901,1126 884,1126 819,1126 751,1108 681,1071 611,1034 550,977 499,900 464,847 438,780 422,700 Z M 452,383 C 473,303 502,248 539,219 575,190 627,175 694,175 761,175 813,193 850,228 886,263 904,311 904,372 904,441 883,499 842,545 800,591 753,614 701,614 660,614 616,594 569,553 522,512 483,456 452,383 Z"/>
   <glyph unicode="5" horiz-adv-x="984" d="M 442,1089 L 442,845 C 518,869 587,881 649,881 775,881 880,838 963,752 1046,666 1088,555 1088,419 1088,279 1046,169 962,90 877,10 748,-30 574,-30 421,-30 299,-1 210,57 158,90 132,129 132,172 132,199 142,223 163,244 183,264 207,274 235,274 258,274 284,263 311,241 338,218 367,203 397,194 440,181 494,175 561,175 685,175 770,195 815,235 860,274 883,335 883,417 883,498 861,561 818,607 774,653 718,676 649,676 575,676 491,652 396,604 375,593 356,587 340,587 311,587 286,598 267,619 247,640 237,668 237,702 L 237,1294 864,1294 C 913,1294 949,1285 970,1266 991,1247 1001,1222 1001,1191 1001,1161 991,1137 970,1118 949,1099 913,1089 864,1089 Z"/>
   <glyph unicode="3" horiz-adv-x="984" d="M 907,685 C 968,644 1013,596 1043,542 1073,487 1088,426 1088,359 1088,286 1068,219 1029,158 989,96 931,49 856,18 781,-14 682,-30 560,-30 401,-30 282,-5 202,44 157,72 135,105 135,144 135,173 145,198 165,219 184,239 208,249 236,249 255,249 275,242 296,229 325,209 353,196 379,189 419,180 474,175 544,175 663,175 750,191 803,222 856,253 883,296 883,353 883,395 868,436 837,475 806,514 764,544 712,565 682,577 631,585 560,590 526,592 500,603 482,622 463,641 454,664 454,692 454,721 464,746 484,766 504,786 529,796 560,796 628,796 664,796 669,797 696,800 722,808 749,823 776,838 797,858 814,884 830,909 838,936 838,963 838,1006 819,1044 781,1076 742,1107 685,1123 608,1123 509,1123 434,1094 382,1037 367,1020 354,1010 345,1005 331,998 315,994 298,994 270,994 246,1004 226,1024 206,1044 196,1069 196,1098 196,1144 227,1189 288,1232 377,1295 489,1327 623,1327 750,1327 851,1291 928,1219 1005,1147 1043,1060 1043,959 1043,906 1032,857 1009,812 986,766 952,724 907,685 Z"/>
   <glyph unicode="1" horiz-adv-x="902" d="M 719,1327 L 719,205 926,205 C 975,205 1011,196 1032,177 1053,158 1063,133 1063,102 1063,72 1053,48 1032,29 1011,10 975,0 926,0 L 307,0 C 258,0 223,10 202,29 181,48 170,72 170,103 170,133 181,158 202,177 223,196 258,205 307,205 L 514,205 514,1060 331,1012 C 302,1004 280,1000 265,1000 239,1000 217,1010 198,1031 179,1052 169,1077 169,1107 169,1134 176,1156 190,1172 204,1187 233,1201 278,1213 Z"/>
   <glyph unicode="0" horiz-adv-x="902" d="M 1062,761 L 1062,536 C 1062,403 1024,275 947,153 870,31 759,-30 616,-30 533,-30 464,-12 407,25 350,61 296,128 245,226 194,323 168,427 168,536 L 168,761 C 168,894 206,1021 283,1144 360,1266 470,1327 613,1327 695,1327 765,1309 822,1273 879,1237 933,1170 985,1073 1036,975 1062,871 1062,761 Z M 856,761 C 856,872 825,970 763,1053 728,1099 678,1122 614,1122 552,1122 501,1097 462,1046 403,969 373,874 373,761 L 373,536 C 373,424 404,327 467,244 502,198 551,175 616,175 677,175 728,200 767,251 826,328 856,423 856,536 Z"/>
   <glyph unicode="." horiz-adv-x="356" d="M 771,103 C 771,64 757,32 730,6 703,-20 665,-33 617,-33 569,-33 531,-20 504,6 477,32 463,64 463,103 463,142 477,174 504,200 531,226 569,239 617,239 665,239 703,226 730,200 757,174 771,142 771,103 Z"/>
   <glyph unicode="," horiz-adv-x="438" d="M 566,276 L 840,276 545,-280 C 528,-313 506,-329 480,-329 463,-329 448,-323 436,-312 423,-301 417,-288 417,-274 417,-264 419,-250 424,-233 Z"/>
   <glyph unicode=" " horiz-adv-x="1229"/>
  </font>
 </defs>
 <defs>
  <font id="EmbeddedFont_3" horiz-adv-x="2048">
   <font-face font-family="Liberation Sans embedded" units-per-em="2048" font-weight="normal" font-style="normal" ascent="1857" descent="437"/>
   <missing-glyph horiz-adv-x="2048" d="M 0,0 L 2047,0 2047,2047 0,2047 0,0 Z"/>
   <glyph unicode="u" horiz-adv-x="903" d="M 314,1082 L 314,396 C 314,325 321,269 335,230 349,191 371,162 402,145 433,128 478,119 537,119 624,119 692,149 742,208 792,267 817,350 817,455 L 817,1082 997,1082 997,231 C 997,105 999,28 1003,0 L 833,0 C 832,3 832,12 831,27 830,42 830,59 829,78 828,97 826,132 825,185 L 822,185 C 781,110 733,58 679,27 624,-5 557,-20 476,-20 357,-20 271,10 216,69 161,128 133,225 133,361 L 133,1082 Z"/>
   <glyph unicode="t" horiz-adv-x="548" d="M 554,8 C 495,-8 434,-16 372,-16 228,-16 156,66 156,229 L 156,951 31,951 31,1082 163,1082 216,1324 336,1324 336,1082 536,1082 536,951 336,951 336,268 C 336,216 345,180 362,159 379,138 408,127 450,127 474,127 509,132 554,141 Z"/>
   <glyph unicode="s" horiz-adv-x="902" d="M 950,299 C 950,197 912,118 835,63 758,8 650,-20 511,-20 376,-20 273,2 200,47 127,91 79,160 57,254 L 216,285 C 231,227 263,185 311,158 359,131 426,117 511,117 602,117 669,131 712,159 754,187 775,229 775,285 775,328 760,362 731,389 702,416 654,438 589,455 L 460,489 C 357,516 283,542 240,568 196,593 162,624 137,661 112,698 100,743 100,796 100,895 135,970 206,1022 276,1073 378,1099 513,1099 632,1099 727,1078 798,1036 868,994 912,927 931,834 L 769,814 C 759,862 732,899 689,925 645,950 586,963 513,963 432,963 372,951 333,926 294,901 275,864 275,814 275,783 283,758 299,738 315,718 339,701 370,687 401,673 467,654 568,629 663,605 732,583 774,563 816,542 849,520 874,495 898,470 917,442 930,410 943,377 950,340 950,299 Z"/>
   <glyph unicode="r" horiz-adv-x="547" d="M 142,0 L 142,830 C 142,906 140,990 136,1082 L 306,1082 C 311,959 314,886 314,861 L 318,861 C 347,954 380,1017 417,1051 454,1085 507,1102 575,1102 599,1102 623,1099 648,1092 L 648,927 C 624,934 592,937 552,937 477,937 420,905 381,841 342,776 322,684 322,564 L 322,0 Z"/>
   <glyph unicode="p" horiz-adv-x="957" d="M 1053,546 C 1053,169 920,-20 655,-20 488,-20 376,43 319,168 L 314,168 C 317,163 318,106 318,-2 L 318,-425 138,-425 138,861 C 138,972 136,1046 132,1082 L 306,1082 C 307,1079 308,1070 309,1054 310,1037 312,1012 314,978 315,944 316,921 316,908 L 320,908 C 352,975 394,1024 447,1055 500,1086 569,1101 655,1101 788,1101 888,1056 954,967 1020,878 1053,737 1053,546 Z M 864,542 C 864,693 844,800 803,865 762,930 698,962 609,962 538,962 482,947 442,917 401,887 371,840 350,777 329,713 318,630 318,528 318,386 341,281 386,214 431,147 505,113 607,113 696,113 762,146 803,212 844,277 864,387 864,542 Z"/>
   <glyph unicode="o" horiz-adv-x="984" d="M 1053,542 C 1053,353 1011,212 928,119 845,26 724,-20 565,-20 407,-20 288,28 207,125 126,221 86,360 86,542 86,915 248,1102 571,1102 736,1102 858,1057 936,966 1014,875 1053,733 1053,542 Z M 864,542 C 864,691 842,800 798,868 753,935 679,969 574,969 469,969 393,935 346,866 299,797 275,689 275,542 275,399 298,292 345,221 391,149 464,113 563,113 671,113 748,148 795,217 841,286 864,395 864,542 Z"/>
   <glyph unicode="n" horiz-adv-x="903" d="M 825,0 L 825,686 C 825,757 818,813 804,852 790,891 768,920 737,937 706,954 661,963 602,963 515,963 447,933 397,874 347,815 322,732 322,627 L 322,0 142,0 142,851 C 142,977 140,1054 136,1082 L 306,1082 C 307,1079 307,1070 308,1055 309,1040 310,1024 311,1005 312,986 313,950 314,897 L 317,897 C 358,972 406,1025 461,1056 515,1087 582,1102 663,1102 782,1102 869,1073 924,1014 979,955 1006,857 1006,721 L 1006,0 Z"/>
   <glyph unicode="m" horiz-adv-x="1476" d="M 768,0 L 768,686 C 768,791 754,863 725,903 696,943 645,963 570,963 493,963 433,934 388,875 343,816 321,734 321,627 L 321,0 142,0 142,851 C 142,977 140,1054 136,1082 L 306,1082 C 307,1079 307,1070 308,1055 309,1040 310,1024 311,1005 312,986 313,950 314,897 L 317,897 C 356,974 400,1027 450,1057 500,1087 561,1102 633,1102 715,1102 780,1086 828,1053 875,1020 908,968 927,897 L 930,897 C 967,970 1013,1022 1066,1054 1119,1086 1183,1102 1258,1102 1367,1102 1447,1072 1497,1013 1546,954 1571,856 1571,721 L 1571,0 1393,0 1393,686 C 1393,791 1379,863 1350,903 1321,943 1270,963 1195,963 1116,963 1055,934 1012,876 968,817 946,734 946,627 L 946,0 Z"/>
   <glyph unicode="i" horiz-adv-x="192" d="M 137,1312 L 137,1484 317,1484 317,1312 Z M 137,0 L 137,1082 317,1082 317,0 Z"/>
   <glyph unicode="g" horiz-adv-x="930" d="M 548,-425 C 430,-425 336,-402 266,-356 196,-309 151,-243 131,-158 L 312,-132 C 324,-182 351,-221 392,-248 433,-275 486,-288 553,-288 732,-288 822,-183 822,27 L 822,201 820,201 C 786,132 739,80 680,45 621,10 551,-8 472,-8 339,-8 242,36 180,124 117,212 86,350 86,539 86,730 120,872 187,963 254,1054 355,1099 492,1099 569,1099 635,1082 692,1047 748,1012 791,962 822,897 L 824,897 C 824,917 825,952 828,1001 831,1050 833,1077 836,1082 L 1007,1082 C 1003,1046 1001,971 1001,858 L 1001,31 C 1001,-273 850,-425 548,-425 Z M 822,541 C 822,629 810,705 786,769 762,832 728,881 685,915 641,948 591,965 536,965 444,965 377,932 335,865 293,798 272,690 272,541 272,393 292,287 331,222 370,157 438,125 533,125 590,125 640,142 684,175 728,208 762,256 786,319 810,381 822,455 822,541 Z"/>
   <glyph unicode="f" horiz-adv-x="548" d="M 361,951 L 361,0 181,0 181,951 29,951 29,1082 181,1082 181,1204 C 181,1303 203,1374 246,1417 289,1460 356,1482 445,1482 495,1482 537,1478 572,1470 L 572,1333 C 542,1338 515,1341 492,1341 446,1341 413,1329 392,1306 371,1283 361,1240 361,1179 L 361,1082 572,1082 572,951 Z"/>
   <glyph unicode="e" horiz-adv-x="984" d="M 276,503 C 276,379 302,283 353,216 404,149 479,115 578,115 656,115 719,131 766,162 813,193 844,233 861,281 L 1019,236 C 954,65 807,-20 578,-20 418,-20 296,28 213,123 129,218 87,360 87,548 87,727 129,864 213,959 296,1054 416,1102 571,1102 889,1102 1048,910 1048,527 L 1048,503 Z M 862,641 C 852,755 823,838 775,891 727,943 658,969 568,969 481,969 412,940 361,882 310,823 282,743 278,641 Z"/>
   <glyph unicode="d" horiz-adv-x="930" d="M 821,174 C 788,105 744,55 689,25 634,-5 565,-20 484,-20 347,-20 247,26 183,118 118,210 86,349 86,536 86,913 219,1102 484,1102 566,1102 634,1087 689,1057 744,1027 788,979 821,914 L 823,914 821,1035 821,1484 1001,1484 1001,223 C 1001,110 1003,36 1007,0 L 835,0 C 833,11 831,35 829,74 826,113 825,146 825,174 Z M 275,542 C 275,391 295,282 335,217 375,152 440,119 530,119 632,119 706,154 752,225 798,296 821,405 821,554 821,697 798,802 752,869 706,936 633,969 532,969 441,969 376,936 336,869 295,802 275,693 275,542 Z"/>
   <glyph unicode="c" horiz-adv-x="902" d="M 275,546 C 275,402 298,295 343,226 388,157 457,122 548,122 612,122 666,139 709,174 752,209 778,262 788,334 L 970,322 C 956,218 912,135 837,73 762,11 668,-20 553,-20 402,-20 286,28 207,124 127,219 87,359 87,542 87,724 127,863 207,959 287,1054 402,1102 551,1102 662,1102 754,1073 827,1016 900,959 945,880 964,779 L 779,765 C 770,825 746,873 708,908 670,943 616,961 546,961 451,961 382,929 339,866 296,803 275,696 275,546 Z"/>
   <glyph unicode="b" horiz-adv-x="957" d="M 1053,546 C 1053,169 920,-20 655,-20 573,-20 505,-5 451,25 396,54 352,102 318,168 L 316,168 C 316,147 315,116 312,74 309,31 307,7 306,0 L 132,0 C 136,36 138,110 138,223 L 138,1484 318,1484 318,1061 C 318,1018 317,967 314,908 L 318,908 C 351,977 396,1027 451,1057 506,1087 574,1102 655,1102 792,1102 892,1056 957,964 1021,872 1053,733 1053,546 Z M 864,540 C 864,691 844,800 804,865 764,930 699,963 609,963 508,963 434,928 388,859 341,790 318,680 318,529 318,387 341,282 386,215 431,147 505,113 607,113 698,113 763,147 804,214 844,281 864,389 864,540 Z"/>
   <glyph unicode="a" horiz-adv-x="1066" d="M 414,-20 C 305,-20 224,9 169,66 114,123 87,202 87,302 87,414 124,500 198,560 271,620 390,652 554,656 L 797,660 797,719 C 797,807 778,870 741,908 704,946 645,965 565,965 484,965 426,951 389,924 352,897 330,853 323,793 L 135,810 C 166,1005 310,1102 569,1102 705,1102 807,1071 876,1009 945,946 979,856 979,738 L 979,272 C 979,219 986,179 1000,152 1014,125 1041,111 1080,111 1097,111 1117,113 1139,118 L 1139,6 C 1094,-5 1047,-10 1000,-10 933,-10 885,8 855,43 824,78 807,132 803,207 L 797,207 C 751,124 698,66 637,32 576,-3 501,-20 414,-20 Z M 455,115 C 521,115 580,130 631,160 682,190 723,231 753,284 782,336 797,390 797,445 L 797,534 600,530 C 515,529 451,520 408,504 364,488 330,463 307,430 284,397 272,353 272,299 272,240 288,195 320,163 351,131 396,115 455,115 Z"/>
   <glyph unicode="S" horiz-adv-x="1203" d="M 1272,389 C 1272,259 1221,158 1120,87 1018,16 875,-20 690,-20 347,-20 148,99 93,338 L 278,375 C 299,290 345,228 414,189 483,149 578,129 697,129 820,129 916,150 983,193 1050,235 1083,297 1083,379 1083,425 1073,462 1052,491 1031,520 1001,543 963,562 925,581 880,596 827,609 774,622 716,635 652,650 541,675 456,699 399,724 341,749 295,776 262,807 229,837 203,872 186,913 168,954 159,1000 159,1053 159,1174 205,1267 298,1332 390,1397 522,1430 694,1430 854,1430 976,1406 1061,1357 1146,1308 1205,1224 1239,1106 L 1051,1073 C 1030,1148 991,1202 933,1236 875,1269 795,1286 692,1286 579,1286 493,1267 434,1230 375,1193 345,1137 345,1063 345,1020 357,984 380,956 403,927 436,903 479,884 522,864 609,840 738,811 781,801 825,791 868,781 911,770 952,758 991,744 1030,729 1067,712 1102,693 1136,674 1166,650 1191,622 1216,594 1236,561 1251,523 1265,485 1272,440 1272,389 Z"/>
   <glyph unicode="D" horiz-adv-x="1230" d="M 1381,719 C 1381,574 1353,447 1296,338 1239,229 1159,145 1055,87 951,29 831,0 695,0 L 168,0 168,1409 634,1409 C 873,1409 1057,1349 1187,1230 1316,1110 1381,940 1381,719 Z M 1189,719 C 1189,894 1141,1027 1046,1119 950,1210 811,1256 630,1256 L 359,1256 359,153 673,153 C 776,153 867,176 946,221 1024,266 1084,332 1126,417 1168,502 1189,603 1189,719 Z"/>
   <glyph unicode="C" horiz-adv-x="1339" d="M 792,1274 C 636,1274 515,1224 428,1124 341,1023 298,886 298,711 298,538 343,400 434,295 524,190 646,137 800,137 997,137 1146,235 1245,430 L 1401,352 C 1343,231 1262,138 1157,75 1052,12 930,-20 791,-20 649,-20 526,10 423,69 319,128 240,212 186,322 131,431 104,561 104,711 104,936 165,1112 286,1239 407,1366 575,1430 790,1430 940,1430 1065,1401 1166,1342 1267,1283 1341,1196 1388,1081 L 1207,1021 C 1174,1103 1122,1166 1050,1209 977,1252 891,1274 792,1274 Z"/>
   <glyph unicode="A" horiz-adv-x="1367" d="M 1167,0 L 1006,412 364,412 202,0 4,0 579,1409 796,1409 1362,0 Z M 685,1265 L 676,1237 C 659,1182 635,1111 602,1024 L 422,561 949,561 768,1026 C 749,1072 731,1124 712,1182 Z"/>
   <glyph unicode="9" horiz-adv-x="984" d="M 1042,733 C 1042,491 998,305 910,175 821,45 695,-20 532,-20 422,-20 334,3 268,50 201,96 154,171 125,274 L 297,301 C 333,184 412,125 535,125 638,125 718,173 775,269 832,365 861,502 864,680 837,620 792,572 727,536 662,499 591,481 514,481 387,481 286,524 210,611 134,698 96,813 96,956 96,1103 137,1219 220,1304 303,1388 418,1430 565,1430 722,1430 840,1372 921,1256 1002,1140 1042,966 1042,733 Z M 846,907 C 846,1020 820,1112 768,1181 716,1250 646,1284 559,1284 472,1284 404,1255 354,1196 304,1137 279,1057 279,956 279,853 304,772 354,713 404,653 472,623 557,623 609,623 657,635 702,659 747,682 782,716 808,759 833,802 846,852 846,907 Z"/>
   <glyph unicode="6" horiz-adv-x="984" d="M 1049,461 C 1049,312 1009,195 928,109 847,23 736,-20 594,-20 435,-20 314,39 230,157 146,275 104,447 104,672 104,916 148,1103 235,1234 322,1365 447,1430 608,1430 821,1430 955,1334 1010,1143 L 838,1112 C 803,1227 725,1284 606,1284 503,1284 424,1236 368,1141 311,1045 283,906 283,725 316,786 362,832 421,864 480,895 548,911 625,911 755,911 858,870 935,789 1011,708 1049,598 1049,461 Z M 866,453 C 866,555 841,634 791,689 741,744 671,772 582,772 498,772 430,748 379,699 327,650 301,582 301,496 301,387 328,298 382,229 435,160 504,125 588,125 675,125 743,154 792,213 841,271 866,351 866,453 Z"/>
   <glyph unicode="3" horiz-adv-x="1011" d="M 1049,389 C 1049,259 1008,158 925,87 842,16 724,-20 571,-20 428,-20 315,12 230,77 145,141 94,236 78,362 L 264,379 C 288,212 390,129 571,129 662,129 733,151 785,196 836,241 862,307 862,395 862,472 833,532 774,575 715,618 629,639 518,639 L 416,639 416,795 514,795 C 613,795 689,817 744,860 798,903 825,962 825,1038 825,1113 803,1173 759,1217 714,1260 648,1282 561,1282 482,1282 418,1262 369,1221 320,1180 291,1123 283,1049 L 102,1063 C 115,1178 163,1268 246,1333 328,1398 434,1430 563,1430 704,1430 814,1397 893,1332 971,1266 1010,1174 1010,1057 1010,967 985,894 935,838 884,781 811,743 715,723 L 715,719 C 820,708 902,672 961,613 1020,554 1049,479 1049,389 Z"/>
   <glyph unicode="1" horiz-adv-x="929" d="M 156,0 L 156,153 515,153 515,1237 197,1010 197,1180 530,1409 696,1409 696,153 1039,153 1039,0 Z"/>
   <glyph unicode=" " horiz-adv-x="574"/>
  </font>
 </defs>
 <defs>
  <font id="EmbeddedFont_4" horiz-adv-x="2048">
   <font-face font-family="Liberation Sans embedded" units-per-em="2048" font-weight="normal" font-style="italic" ascent="1857" descent="437"/>
   <missing-glyph horiz-adv-x="2048" d="M 0,0 L 2047,0 2047,2047 0,2047 0,0 Z"/>
   <glyph unicode="t" horiz-adv-x="574" d="M 275,-20 C 218,-20 174,-3 142,31 109,65 93,110 93,166 93,203 98,246 108,296 L 234,951 109,951 135,1082 262,1082 367,1324 487,1324 440,1082 640,1082 614,951 414,951 289,306 C 281,266 277,234 277,211 277,152 307,123 367,123 395,123 428,128 467,137 L 448,4 C 382,-12 324,-20 275,-20 Z"/>
   <glyph unicode="s" horiz-adv-x="984" d="M 907,317 C 907,209 866,126 783,68 700,9 581,-20 425,-20 309,-20 217,-1 149,39 80,78 32,139 5,223 L 152,279 C 174,220 208,178 255,151 301,124 363,111 441,111 536,111 609,127 658,160 707,192 732,239 732,301 732,342 715,377 681,405 647,432 575,463 465,497 380,525 316,552 273,579 230,606 198,637 175,673 152,708 141,750 141,797 141,894 180,968 257,1021 334,1073 443,1099 584,1099 820,1099 953,1014 982,844 L 819,819 C 804,872 777,910 736,933 695,956 641,968 572,968 489,968 426,955 382,929 337,902 315,865 315,817 315,789 322,765 336,746 350,727 370,710 397,695 423,680 484,657 579,627 664,600 728,573 771,546 814,519 847,486 871,449 895,412 907,368 907,317 Z"/>
   <glyph unicode="r" horiz-adv-x="739" d="M 718,938 C 689,947 659,951 628,951 558,951 495,914 439,841 382,768 344,675 324,564 L 214,0 34,0 196,830 221,968 239,1082 409,1082 374,861 378,861 C 422,950 465,1012 508,1048 551,1084 600,1102 656,1102 687,1102 718,1097 751,1088 Z"/>
   <glyph unicode="p" horiz-adv-x="1148" d="M 554,-20 C 472,-20 405,-3 354,32 302,67 265,115 244,178 L 239,178 C 239,171 236,149 231,113 225,77 191,-102 128,-425 L -51,-425 198,861 C 213,935 225,1009 233,1082 L 400,1082 C 400,1064 398,1037 394,1000 389,963 386,936 383,921 L 387,921 C 436,984 487,1030 541,1059 595,1088 662,1102 741,1102 846,1102 927,1071 986,1008 1044,945 1073,858 1073,748 1073,613 1053,482 1012,355 971,228 913,133 839,72 764,11 669,-20 554,-20 Z M 689,963 C 623,963 567,950 520,923 473,896 433,855 400,801 367,746 342,678 323,597 304,515 295,442 295,377 295,294 316,229 359,183 401,136 460,113 535,113 618,113 683,138 731,189 779,239 817,319 844,429 871,538 885,634 885,716 885,798 869,860 838,901 807,942 757,963 689,963 Z"/>
   <glyph unicode="o" horiz-adv-x="1038" d="M 1074,683 C 1074,596 1061,506 1034,413 1007,319 969,240 920,175 870,110 809,61 737,29 665,-4 583,-20 491,-20 360,-20 257,19 181,98 105,177 67,284 67,419 70,555 94,676 141,781 188,886 252,966 335,1020 418,1074 520,1101 642,1101 782,1101 889,1065 963,992 1037,919 1074,816 1074,683 Z M 888,683 C 888,874 805,969 640,969 550,969 478,946 424,900 369,853 327,783 297,689 267,595 252,504 252,416 252,317 273,242 316,191 359,139 421,113 502,113 571,113 626,125 668,148 709,171 746,207 777,256 808,305 834,367 854,443 873,519 885,599 888,683 Z"/>
   <glyph unicode="n" horiz-adv-x="1039" d="M 717,0 L 843,645 C 855,704 861,754 861,795 861,906 801,962 682,962 598,962 524,930 460,866 396,802 353,715 332,606 L 214,0 34,0 200,851 C 213,914 226,991 239,1082 L 409,1082 C 409,1075 406,1049 399,1005 392,960 386,924 381,897 L 384,897 C 439,974 495,1027 551,1057 606,1086 672,1101 749,1101 848,1101 922,1077 972,1028 1021,979 1046,909 1046,817 1046,774 1039,720 1025,653 L 898,0 Z"/>
   <glyph unicode="m" horiz-adv-x="1585" d="M 660,0 L 784,634 C 801,717 809,775 809,808 809,858 796,896 771,923 746,949 704,962 647,962 570,962 502,929 445,863 387,797 349,711 331,604 L 213,0 34,0 200,851 C 213,914 226,991 239,1082 L 409,1082 C 409,1075 406,1049 399,1005 392,960 386,924 381,897 L 384,897 C 433,973 482,1026 531,1056 580,1086 638,1101 706,1101 787,1101 851,1081 898,1042 945,1002 974,944 983,869 1038,956 1093,1016 1147,1050 1200,1084 1262,1101 1331,1101 1421,1101 1490,1077 1539,1028 1587,979 1611,909 1611,817 1611,774 1604,720 1590,653 L 1463,0 1285,0 1409,634 C 1426,717 1434,775 1434,808 1434,858 1421,896 1396,923 1371,949 1329,962 1272,962 1195,962 1127,930 1070,865 1013,800 975,714 956,607 L 838,0 Z"/>
   <glyph unicode="l" horiz-adv-x="493" d="M 33,0 L 321,1484 501,1484 212,0 Z"/>
   <glyph unicode="i" horiz-adv-x="493" d="M 287,1312 L 321,1484 501,1484 467,1312 Z M 33,0 L 243,1082 423,1082 212,0 Z"/>
   <glyph unicode="g" horiz-adv-x="1148" d="M 397,-425 C 171,-425 40,-341 4,-173 L 167,-131 C 190,-236 268,-288 401,-288 496,-288 569,-264 621,-215 673,-166 710,-85 731,27 L 765,201 763,201 C 722,142 685,99 654,73 622,47 586,27 547,13 507,-1 461,-8 410,-8 308,-8 226,26 164,93 101,160 70,248 70,359 70,448 83,543 108,646 133,749 167,834 210,902 253,970 306,1020 368,1053 430,1085 503,1101 588,1101 669,1101 737,1082 793,1044 848,1006 884,957 900,897 L 902,897 C 907,922 915,957 927,1004 939,1050 947,1076 950,1082 L 1121,1082 1102,1000 1072,858 911,31 C 879,-130 822,-247 739,-318 656,-389 542,-425 397,-425 Z M 259,373 C 259,292 277,231 312,189 347,146 398,125 466,125 538,125 603,151 662,204 721,256 766,328 799,419 831,510 847,605 847,704 847,787 826,852 783,899 740,945 682,968 607,968 547,968 497,956 457,931 417,906 383,868 356,815 329,762 306,692 287,605 268,517 259,440 259,373 Z"/>
   <glyph unicode="e" horiz-adv-x="1011" d="M 256,503 C 252,480 249,442 247,390 247,301 269,233 314,186 358,139 425,115 514,115 579,115 637,131 690,163 743,195 784,239 813,294 L 951,231 C 902,144 841,80 766,40 691,0 600,-20 493,-20 359,-20 255,17 181,92 106,166 69,270 69,405 69,539 93,659 140,766 187,872 254,955 340,1014 426,1073 523,1102 630,1102 767,1102 873,1068 949,999 1025,930 1063,833 1063,708 1063,638 1055,570 1039,503 Z M 880,641 L 884,713 C 884,796 863,859 820,903 777,947 715,969 634,969 545,969 470,941 409,884 348,827 305,746 280,641 Z"/>
   <glyph unicode="a" horiz-adv-x="1066" d="M 927,-10 C 865,-10 820,3 792,29 763,54 749,92 749,143 L 754,207 748,207 C 693,123 635,64 576,31 517,-3 445,-20 361,-20 268,-20 192,8 134,64 75,120 46,191 46,278 46,401 90,495 179,558 267,621 408,654 601,657 L 833,660 C 846,725 852,768 852,787 852,848 834,893 799,922 764,951 715,965 652,965 573,965 513,951 472,923 431,894 402,851 384,793 L 206,822 C 236,920 288,991 363,1036 437,1080 537,1102 662,1102 776,1102 866,1075 933,1022 999,969 1032,897 1032,807 1032,764 1026,712 1013,650 L 939,272 C 932,240 928,211 928,184 928,135 955,111 1009,111 1027,111 1047,113 1069,118 L 1055,6 C 1011,-5 968,-10 927,-10 Z M 809,536 L 610,532 C 531,530 468,523 423,511 378,498 343,483 318,464 293,445 273,421 259,392 244,363 237,327 237,286 237,236 253,195 286,164 318,133 360,117 411,117 476,117 534,131 586,159 638,186 681,222 715,267 749,312 771,360 782,411 Z"/>
   <glyph unicode="S" horiz-adv-x="1312" d="M 616,-20 C 450,-20 321,10 230,69 138,128 81,217 58,338 L 235,375 C 253,289 293,227 355,188 417,149 509,130 630,130 776,130 883,152 950,196 1017,239 1051,306 1051,396 1051,441 1041,477 1022,504 1003,531 970,555 923,577 876,598 796,625 682,657 568,688 483,721 427,754 370,787 328,826 299,873 270,920 255,976 255,1041 255,1162 306,1258 409,1327 511,1396 649,1430 824,1430 971,1430 1088,1405 1177,1354 1266,1303 1321,1229 1344,1132 L 1171,1081 C 1149,1151 1110,1203 1053,1236 996,1269 919,1286 823,1286 572,1286 447,1207 447,1050 447,1010 456,977 473,952 490,927 518,905 557,886 596,867 673,841 789,810 919,774 1013,739 1070,706 1127,673 1170,632 1201,585 1231,537 1246,478 1246,408 1246,271 1194,165 1091,91 988,17 829,-20 616,-20 Z"/>
   <glyph unicode="P" horiz-adv-x="1312" d="M 852,1409 C 1006,1409 1128,1374 1218,1305 1308,1236 1353,1141 1353,1020 1353,873 1302,758 1201,675 1099,591 960,549 784,549 L 360,549 254,0 63,0 336,1409 Z M 390,700 L 777,700 C 1032,700 1159,804 1159,1011 1159,1090 1133,1151 1080,1193 1027,1235 950,1256 847,1256 L 498,1256 Z"/>
   <glyph unicode=" " horiz-adv-x="574"/>
  </font>
 </defs>
 <defs class="TextShapeIndex">
  <g ooo:slide="id1" ooo:id-list="id3 id4 id5 id6 id7 id8 id9 id10 id11 id12 id13 id14 id15 id16 id17 id18 id19 id20 id21 id22 id23 id24 id25 id26"/>
 </defs>
 <defs class="EmbeddedBulletChars">
  <g id="bullet-char-template-57356" transform="scale(0.00048828125,-0.00048828125)">
   <path d="M 580,1141 L 1163,571 580,0 -4,571 580,1141 Z"/>
  </g>
  <g id="bullet-char-template-57354" transform="scale(0.00048828125,-0.00048828125)">
   <path d="M 8,1128 L 1137,1128 1137,0 8,0 8,1128 Z"/>
  </g>
  <g id="bullet-char-template-10146" transform="scale(0.00048828125,-0.00048828125)">
   <path d="M 174,0 L 602,739 174,1481 1456,739 174,0 Z M 1358,739 L 309,1346 659,739 1358,739 Z"/>
  </g>
  <g id="bullet-char-template-10132" transform="scale(0.00048828125,-0.00048828125)">
   <path d="M 2015,739 L 1276,0 717,0 1260,543 174,543 174,936 1260,936 717,1481 1274,1481 2015,739 Z"/>
  </g>
  <g id="bullet-char-template-10007" transform="scale(0.00048828125,-0.00048828125)">
   <path d="M 0,-2 C -7,14 -16,27 -25,37 L 356,567 C 262,823 215,952 215,954 215,979 228,992 255,992 264,992 276,990 289,987 310,991 331,999 354,1012 L 381,999 492,748 772,1049 836,1024 860,1049 C 881,1039 901,1025 922,1006 886,937 835,863 770,784 769,783 710,716 594,584 L 774,223 C 774,196 753,168 711,139 L 727,119 C 717,90 699,76 672,76 641,76 570,178 457,381 L 164,-76 C 142,-110 111,-127 72,-127 30,-127 9,-110 8,-76 1,-67 -2,-52 -2,-32 -2,-23 -1,-13 0,-2 Z"/>
  </g>
  <g id="bullet-char-template-10004" transform="scale(0.00048828125,-0.00048828125)">
   <path d="M 285,-33 C 182,-33 111,30 74,156 52,228 41,333 41,471 41,549 55,616 82,672 116,743 169,778 240,778 293,778 328,747 346,684 L 369,508 C 377,444 397,411 428,410 L 1163,1116 C 1174,1127 1196,1133 1229,1133 1271,1133 1292,1118 1292,1087 L 1292,965 C 1292,929 1282,901 1262,881 L 442,47 C 390,-6 338,-33 285,-33 Z"/>
  </g>
  <g id="bullet-char-template-9679" transform="scale(0.00048828125,-0.00048828125)">
   <path d="M 813,0 C 632,0 489,54 383,161 276,268 223,411 223,592 223,773 276,916 383,1023 489,1130 632,1184 813,1184 992,1184 1136,1130 1245,1023 1353,916 1407,772 1407,592 1407,412 1353,268 1245,161 1136,54 992,0 813,0 Z"/>
  </g>
  <g id="bullet-char-template-8226" transform="scale(0.00048828125,-0.00048828125)">
   <path d="M 346,457 C 273,457 209,483 155,535 101,586 74,649 74,723 74,796 101,859 155,911 209,963 273,989 346,989 419,989 480,963 531,910 582,859 608,796 608,723 608,648 583,586 532,535 482,483 420,457 346,457 Z"/>
  </g>
  <g id="bullet-char-template-8211" transform="scale(0.00048828125,-0.00048828125)">
   <path d="M -4,459 L 1135,459 1135,606 -4,606 -4,459 Z"/>
  </g>
  <g id="bullet-char-template-61548" transform="scale(0.00048828125,-0.00048828125)">
   <path d="M 173,740 C 173,903 231,1043 346,1159 462,1274 601,1332 765,1332 928,1332 1067,1274 1183,1159 1299,1043 1357,903 1357,740 1357,577 1299,437 1183,322 1067,206 928,148 765,148 601,148 462,206 346,322 231,437 173,577 173,740 Z"/>
  </g>
 </defs>
 <g>
  <g id="id2" class="Master_Slide">
   <g id="bg-id2" class="Background"/>
   <g id="bo-id2" class="BackgroundObjects"/>
  </g>
 </g>
 <g class="SlideGroup">
  <g>
   <g id="container-id1">
    <g id="id1" class="Slide" clip-path="url(#presentation_clip_path)">
     <g class="Page">
      <g class="com.sun.star.drawing.TextShape">
       <g id="id3">
        <rect class="BoundingBox" stroke="none" fill="none" x="9436" y="8542" width="9145" height="2029"/>
       </g>
      </g>
      <g class="com.sun.star.drawing.TextShape">
       <g id="id4">
        <rect class="BoundingBox" stroke="none" fill="none" x="1372" y="2261" width="4446" height="2316"/>
        <text class="TextShape"><tspan class="TextParagraph" font-family="Courier New" font-size="353px" font-weight="700"><tspan class="TextPosition" x="1747" y="2704"><tspan fill="rgb(0,0,0)" stroke="none">dev_data_data_clk</tspan><tspan font-family="Liberation Sans, sans-serif" font-weight="400" fill="rgb(0,0,0)" stroke="none"> </tspan></tspan><tspan class="TextPosition" x="2291" y="3128"><tspan fill="rgb(0,0,0)" stroke="none">devsignal</tspan><tspan font-family="Liberation Sans, sans-serif" font-weight="400" fill="rgb(0,0,0)" stroke="none"> port</tspan></tspan><tspan class="TextPosition" x="2488" y="3552"><tspan font-family="Liberation Sans, sans-serif" font-weight="400" fill="rgb(0,0,0)" stroke="none"> </tspan><tspan fill="rgb(0,0,0)" stroke="none">DATA_CLK_P</tspan></tspan></tspan><tspan class="TextParagraph" font-family="Liberation Sans, sans-serif" font-size="353px" font-weight="400"><tspan class="TextPosition" x="3068" y="3976"><tspan fill="rgb(0,0,0)" stroke="none">sent to </tspan></tspan><tspan class="TextPosition" x="1690" y="4344"><tspan font-family="Courier New" font-weight="700" fill="rgb(0,0,0)" stroke="none">ad9361_adc_sub.hdl</tspan></tspan></tspan></text>
       </g>
      </g>
      <g class="com.sun.star.drawing.TextShape">
       <g id="id5">
        <rect class="BoundingBox" stroke="none" fill="none" x="3658" y="4928" width="4319" height="2287"/>
        <text class="TextShape"><tspan class="TextParagraph" font-family="Courier New" font-size="353px" font-weight="700"><tspan class="TextPosition" x="4547" y="5345"><tspan fill="rgb(0,0,0)" stroke="none">dev_data_adc</tspan></tspan><tspan class="TextPosition" x="4513" y="5769"><tspan fill="rgb(0,0,0)" stroke="none">devsignal</tspan><tspan font-family="Liberation Sans, sans-serif" font-weight="400" fill="rgb(0,0,0)" stroke="none"> port</tspan></tspan></tspan><tspan class="TextParagraph" font-family="Liberation Sans, sans-serif" font-size="353px" font-weight="400"><tspan class="TextPosition" x="4725" y="6193"><tspan fill="rgb(0,0,0)" stroke="none">ADC data bus</tspan></tspan><tspan class="TextPosition" x="5242" y="6587"><tspan fill="rgb(0,0,0)" stroke="none"> sent to </tspan></tspan><tspan class="TextPosition" x="3912" y="6955"><tspan font-family="Courier New" font-weight="700" fill="rgb(0,0,0)" stroke="none">ad9361_adc_sub.hdl</tspan></tspan></tspan></text>
       </g>
      </g>
      <g class="com.sun.star.drawing.TextShape">
       <g id="id6">
        <rect class="BoundingBox" stroke="none" fill="none" x="7341" y="2261" width="4446" height="2414"/>
        <text class="TextShape"><tspan class="TextParagraph" font-family="Courier New" font-size="353px" font-weight="700"><tspan class="TextPosition" x="7716" y="2704"><tspan fill="rgb(0,0,0)" stroke="none">dev_cfg_data_port</tspan><tspan font-family="Liberation Sans, sans-serif" font-weight="400" fill="rgb(0,0,0)" stroke="none"> </tspan></tspan><tspan class="TextPosition" x="8260" y="3128"><tspan fill="rgb(0,0,0)" stroke="none">devsignal</tspan><tspan font-family="Liberation Sans, sans-serif" font-weight="400" fill="rgb(0,0,0)" stroke="none"> port</tspan></tspan></tspan><tspan class="TextParagraph" font-family="Liberation Sans, sans-serif" font-size="353px" font-weight="400"><tspan class="TextPosition" x="8766" y="3552"><tspan fill="rgb(0,0,0)" stroke="none">config info</tspan></tspan><tspan class="TextPosition" x="8988" y="3946"><tspan fill="rgb(0,0,0)" stroke="none"> sent to </tspan></tspan><tspan class="TextPosition" x="7765" y="4314"><tspan font-family="Courier New" font-weight="700" fill="rgb(0,0,0)" stroke="none">ad9361_config.hdl</tspan></tspan></tspan></text>
       </g>
      </g>
      <g class="com.sun.star.drawing.TextShape">
       <g id="id7">
        <rect class="BoundingBox" stroke="none" fill="none" x="9754" y="4928" width="4573" height="2414"/>
        <text class="TextShape"><tspan class="TextParagraph" font-family="Courier New" font-size="353px" font-weight="700"><tspan class="TextPosition" x="10722" y="5371"><tspan fill="rgb(0,0,0)" stroke="none">dev_data_clk</tspan><tspan font-family="Liberation Sans, sans-serif" font-weight="400" fill="rgb(0,0,0)" stroke="none"> </tspan></tspan><tspan class="TextPosition" x="10736" y="5795"><tspan fill="rgb(0,0,0)" stroke="none">devsignal</tspan><tspan font-family="Liberation Sans, sans-serif" font-weight="400" fill="rgb(0,0,0)" stroke="none"> port</tspan></tspan></tspan><tspan class="TextParagraph" font-family="Courier New" font-size="353px" font-weight="700"><tspan class="TextPosition" x="10982" y="6193"><tspan fill="rgb(0,0,0)" stroke="none">DATA_CLK_P</tspan></tspan><tspan class="TextPosition" x="11465" y="6617"><tspan font-family="Liberation Sans, sans-serif" font-weight="400" fill="rgb(0,0,0)" stroke="none"> sent to </tspan></tspan><tspan class="TextPosition" x="10135" y="6985"><tspan fill="rgb(0,0,0)" stroke="none">ad9361_dac_sub.hdl</tspan></tspan></tspan></text>
       </g>
      </g>
      <g class="com.sun.star.drawing.CustomShape">
       <g id="id8">
        <rect class="BoundingBox" stroke="none" fill="none" x="1743" y="8228" width="24514" height="3432"/>
        <path fill="rgb(114,159,207)" stroke="none" d="M 14000,11658 L 1744,11658 1744,8229 26255,8229 26255,11658 14000,11658 Z"/>
        <path fill="none" stroke="rgb(52,101,164)" d="M 14000,11658 L 1744,11658 1744,8229 26255,8229 26255,11658 14000,11658 Z"/>
       </g>
      </g>
      <g class="com.sun.star.drawing.TextShape">
       <g id="id9">
        <rect class="BoundingBox" stroke="none" fill="none" x="10786" y="10516" width="6097" height="1674"/>
        <text class="TextShape"><tspan class="TextParagraph" font-family="Liberation Sans, sans-serif" font-size="635px" font-weight="400"><tspan class="TextPosition" x="11036" y="11217"><tspan fill="rgb(255,255,255)" stroke="none">AD9361 Data Sub</tspan></tspan></tspan></text>
       </g>
      </g>
      <g class="com.sun.star.drawing.TextShape">
       <g id="id10">
        <rect class="BoundingBox" stroke="none" fill="none" x="4864" y="8919" width="18289" height="1408"/>
        <text class="TextShape"><tspan class="TextParagraph" font-family="Courier New" font-size="494px" font-weight="400"><tspan class="TextPosition" x="5114" y="9455"><tspan fill="rgb(255,255,255)" stroke="none">LVDS_p, HALF_DUPLEX_p, SINGLE_PORT_p, SWAP_PORTS_p, MODE_p, </tspan></tspan><tspan class="TextPosition" x="5114" y="10014"><tspan fill="rgb(255,255,255)" stroke="none">DATA_CLK_Delay, RX_Data_Delay, FB_CLK_Delay, TX_Data_Delay</tspan></tspan></tspan></text>
       </g>
      </g>
      <g class="com.sun.star.drawing.LineShape">
       <g id="id11">
        <rect class="BoundingBox" stroke="none" fill="none" x="15293" y="4402" width="353" height="3829"/>
        <path fill="none" stroke="rgb(0,0,0)" stroke-width="35" stroke-linejoin="round" d="M 15469,4420 L 15469,7725"/>
        <path fill="rgb(0,0,0)" stroke="none" d="M 15469,8230 L 15645,7702 15293,7702 15469,8230 Z"/>
       </g>
      </g>
      <g class="com.sun.star.drawing.LineShape">
       <g id="id12">
        <rect class="BoundingBox" stroke="none" fill="none" x="9070" y="4579" width="353" height="3702"/>
        <path fill="none" stroke="rgb(0,0,0)" stroke-width="35" stroke-linejoin="round" d="M 9246,8262 L 9246,5084"/>
        <path fill="rgb(0,0,0)" stroke="none" d="M 9246,4579 L 9070,5107 9422,5107 9246,4579 Z"/>
       </g>
      </g>
      <g class="com.sun.star.drawing.LineShape">
       <g id="id13">
        <rect class="BoundingBox" stroke="none" fill="none" x="13850" y="11658" width="301" height="1018"/>
        <path fill="none" stroke="rgb(102,102,102)" d="M 14000,11659 L 14000,12245"/>
        <path fill="rgb(102,102,102)" stroke="none" d="M 14000,12675 L 14150,12225 13850,12225 14000,12675 Z"/>
       </g>
      </g>
      <g class="com.sun.star.drawing.LineShape">
       <g id="id14">
        <rect class="BoundingBox" stroke="none" fill="none" x="3133" y="4547" width="353" height="3702"/>
        <path fill="none" stroke="rgb(0,0,0)" stroke-width="35" stroke-linejoin="round" d="M 3309,8230 L 3309,5052"/>
        <path fill="rgb(0,0,0)" stroke="none" d="M 3309,4547 L 3133,5075 3485,5075 3309,4547 Z"/>
       </g>
      </g>
      <g class="com.sun.star.drawing.TextShape">
       <g id="id15">
        <rect class="BoundingBox" stroke="none" fill="none" x="13564" y="2261" width="4446" height="2414"/>
        <text class="TextShape"><tspan class="TextParagraph" font-family="Courier New" font-size="353px" font-weight="700"><tspan class="TextPosition" x="14517" y="2678"><tspan fill="rgb(0,0,0)" stroke="none">dev_data_dac</tspan></tspan><tspan class="TextPosition" x="14483" y="3102"><tspan fill="rgb(0,0,0)" stroke="none">devsignal</tspan><tspan font-family="Liberation Sans, sans-serif" font-weight="400" fill="rgb(0,0,0)" stroke="none"> port</tspan></tspan></tspan><tspan class="TextParagraph" font-family="Liberation Sans, sans-serif" font-size="353px" font-weight="400"><tspan class="TextPosition" x="14695" y="3526"><tspan fill="rgb(0,0,0)" stroke="none">DAC data bus</tspan></tspan><tspan class="TextPosition" x="15006" y="3920"><tspan fill="rgb(0,0,0)" stroke="none"> sent from </tspan></tspan><tspan class="TextPosition" x="13882" y="4288"><tspan font-family="Courier New" font-weight="700" fill="rgb(0,0,0)" stroke="none">ad9361_dac_sub.hdl</tspan></tspan></tspan></text>
       </g>
      </g>
      <g class="com.sun.star.drawing.TextShape">
       <g id="id16">
        <rect class="BoundingBox" stroke="none" fill="none" x="16104" y="4928" width="4446" height="2414"/>
        <text class="TextShape"><tspan class="TextParagraph" font-family="Courier New" font-size="353px" font-weight="700"><tspan class="TextPosition" x="17008" y="5371"><tspan fill="rgb(0,0,0)" stroke="none">dev_txen_dac</tspan><tspan font-family="Liberation Sans, sans-serif" font-weight="400" fill="rgb(0,0,0)" stroke="none"> </tspan></tspan><tspan class="TextPosition" x="17023" y="5795"><tspan fill="rgb(0,0,0)" stroke="none">devsignal</tspan><tspan font-family="Liberation Sans, sans-serif" font-weight="400" fill="rgb(0,0,0)" stroke="none"> port</tspan></tspan></tspan><tspan class="TextParagraph" font-family="Liberation Sans, sans-serif" font-size="353px" font-weight="400"><tspan class="TextPosition" x="17235" y="6219"><tspan fill="rgb(0,0,0)" stroke="none">DAC data bus</tspan></tspan><tspan class="TextPosition" x="17546" y="6613"><tspan fill="rgb(0,0,0)" stroke="none"> sent from </tspan></tspan><tspan class="TextPosition" x="16422" y="6981"><tspan font-family="Courier New" font-weight="700" fill="rgb(0,0,0)" stroke="none">ad9361_dac_sub.hdl</tspan></tspan></tspan></text>
       </g>
      </g>
      <g class="com.sun.star.drawing.TextShape">
       <g id="id17">
        <rect class="BoundingBox" stroke="none" fill="none" x="18644" y="2261" width="4446" height="2414"/>
        <text class="TextShape"><tspan class="TextParagraph" font-family="Courier New" font-size="353px" font-weight="700"><tspan class="TextPosition" x="19231" y="2704"><tspan fill="rgb(0,0,0)" stroke="none">dev_rxen_config</tspan><tspan font-family="Liberation Sans, sans-serif" font-weight="400" fill="rgb(0,0,0)" stroke="none"> </tspan></tspan><tspan class="TextPosition" x="19563" y="3128"><tspan fill="rgb(0,0,0)" stroke="none">devsignal</tspan><tspan font-family="Liberation Sans, sans-serif" font-weight="400" fill="rgb(0,0,0)" stroke="none"> port</tspan></tspan></tspan><tspan class="TextParagraph" font-family="Liberation Sans, sans-serif" font-size="353px" font-weight="400"><tspan class="TextPosition" x="19775" y="3552"><tspan fill="rgb(0,0,0)" stroke="none">DAC data bus</tspan></tspan><tspan class="TextPosition" x="20291" y="3946"><tspan fill="rgb(0,0,0)" stroke="none"> sent to </tspan></tspan><tspan class="TextPosition" x="18962" y="4314"><tspan font-family="Courier New" font-weight="700" fill="rgb(0,0,0)" stroke="none">ad9361_adc_sub.hdl</tspan></tspan></tspan></text>
       </g>
      </g>
      <g class="com.sun.star.drawing.TextShape">
       <g id="id18">
        <rect class="BoundingBox" stroke="none" fill="none" x="21819" y="4928" width="4446" height="2414"/>
        <text class="TextShape"><tspan class="TextParagraph" font-family="Courier New" font-size="353px" font-weight="700"><tspan class="TextPosition" x="22406" y="5371"><tspan fill="rgb(0,0,0)" stroke="none">dev_txen_config</tspan><tspan font-family="Liberation Sans, sans-serif" font-weight="400" fill="rgb(0,0,0)" stroke="none"> </tspan></tspan><tspan class="TextPosition" x="22738" y="5795"><tspan fill="rgb(0,0,0)" stroke="none">devsignal</tspan><tspan font-family="Liberation Sans, sans-serif" font-weight="400" fill="rgb(0,0,0)" stroke="none"> port</tspan></tspan></tspan><tspan class="TextParagraph" font-family="Liberation Sans, sans-serif" font-size="353px" font-weight="400"><tspan class="TextPosition" x="22950" y="6219"><tspan fill="rgb(0,0,0)" stroke="none">DAC data bus</tspan></tspan><tspan class="TextPosition" x="23466" y="6613"><tspan fill="rgb(0,0,0)" stroke="none"> sent to </tspan></tspan><tspan class="TextPosition" x="22137" y="6981"><tspan font-family="Courier New" font-weight="700" fill="rgb(0,0,0)" stroke="none">ad9361_dac_sub.hdl</tspan></tspan></tspan></text>
       </g>
      </g>
      <g class="com.sun.star.drawing.LineShape">
       <g id="id19">
        <rect class="BoundingBox" stroke="none" fill="none" x="20749" y="4420" width="354" height="3829"/>
        <path fill="none" stroke="rgb(0,0,0)" stroke-width="35" stroke-linejoin="round" d="M 20898,8230 L 20926,4925"/>
        <path fill="rgb(0,0,0)" stroke="none" d="M 20930,4420 L 20750,4947 21102,4949 20930,4420 Z"/>
       </g>
      </g>
      <g class="com.sun.star.drawing.LineShape">
       <g id="id20">
        <rect class="BoundingBox" stroke="none" fill="none" x="23802" y="7214" width="353" height="1035"/>
        <path fill="none" stroke="rgb(0,0,0)" stroke-width="35" stroke-linejoin="round" d="M 23978,8230 L 23978,7719"/>
        <path fill="rgb(0,0,0)" stroke="none" d="M 23978,7214 L 23802,7742 24154,7742 23978,7214 Z"/>
       </g>
      </g>
      <g class="com.sun.star.drawing.LineShape">
       <g id="id21">
        <rect class="BoundingBox" stroke="none" fill="none" x="17833" y="7196" width="353" height="1035"/>
        <path fill="none" stroke="rgb(0,0,0)" stroke-width="35" stroke-linejoin="round" d="M 18009,7214 L 18009,7725"/>
        <path fill="rgb(0,0,0)" stroke="none" d="M 18009,8230 L 18185,7702 17833,7702 18009,8230 Z"/>
       </g>
      </g>
      <g class="com.sun.star.drawing.LineShape">
       <g id="id22">
        <rect class="BoundingBox" stroke="none" fill="none" x="11737" y="7150" width="353" height="1035"/>
        <path fill="none" stroke="rgb(0,0,0)" stroke-width="35" stroke-linejoin="round" d="M 11913,8166 L 11913,7655"/>
        <path fill="rgb(0,0,0)" stroke="none" d="M 11913,7150 L 11737,7678 12089,7678 11913,7150 Z"/>
       </g>
      </g>
      <g class="com.sun.star.drawing.LineShape">
       <g id="id23">
        <rect class="BoundingBox" stroke="none" fill="none" x="5895" y="7214" width="353" height="1035"/>
        <path fill="none" stroke="rgb(0,0,0)" stroke-width="35" stroke-linejoin="round" d="M 6071,8230 L 6071,7719"/>
        <path fill="rgb(0,0,0)" stroke="none" d="M 6071,7214 L 5895,7742 6247,7742 6071,7214 Z"/>
       </g>
      </g>
      <g class="com.sun.star.drawing.TextShape">
       <g id="id24">
        <rect class="BoundingBox" stroke="none" fill="none" x="10850" y="8230" width="5970" height="1506"/>
        <text class="TextShape"><tspan class="TextParagraph" font-family="Liberation Sans, sans-serif" font-size="564px" font-style="italic" font-weight="400"><tspan class="TextPosition" x="11100" y="8863"><tspan fill="rgb(255,255,255)" stroke="none">Parameter Properties</tspan></tspan></tspan></text>
       </g>
      </g>
      <g class="com.sun.star.drawing.TextShape">
       <g id="id25">
        <rect class="BoundingBox" stroke="none" fill="none" x="12921" y="12421" width="2803" height="1506"/>
        <text class="TextShape"><tspan class="TextParagraph" font-family="Liberation Sans, sans-serif" font-size="564px" font-style="italic" font-weight="400"><tspan class="TextPosition" x="13171" y="13054"><tspan fill="rgb(0,0,0)" stroke="none">Signals</tspan></tspan></tspan></text>
       </g>
      </g>
      <g class="com.sun.star.drawing.TextShape">
       <g id="id26">
        <rect class="BoundingBox" stroke="none" fill="none" x="1935" y="13310" width="24131" height="1587"/>
        <text class="TextShape"><tspan class="TextParagraph" font-family="Courier New" font-size="388px" font-weight="700"><tspan class="TextPosition" x="2185" y="13761"><tspan fill="rgb(0,0,0)" stroke="none">DATA_CLK_P, DATA_CLK_N, RX_FRAME_P, RX_FRAME_N, FB_CLK_P, FB_CLK_N, TX_FRAME_P, TX_FRAME_N, TXNRX, </tspan></tspan><tspan class="TextPosition" x="2185" y="14206"><tspan fill="rgb(0,0,0)" stroke="none">ENABLE, P0_D_11_6[5:0], P0_D_5_0[5:0], P1_D_11_6[5:0]] P1_D_5_0[5:0]</tspan></tspan></tspan></text>
       </g>
      </g>
     </g>
    </g>
   </g>
  </g>
 </g>
</svg>